%YAML 1.1
%TAG !u! tag:unity3d.com,2011:
--- !u!1 &6008037928961672453
GameObject:
  m_ObjectHideFlags: 0
  m_CorrespondingSourceObject: {fileID: 0}
  m_PrefabInstance: {fileID: 0}
  m_PrefabAsset: {fileID: 0}
  serializedVersion: 6
  m_Component:
  - component: {fileID: 7737271064008883737}
  - component: {fileID: 2353187499219711789}
  - component: {fileID: 9047849023381048226}
  m_Layer: 0
  m_Name: Layer1
  m_TagString: Untagged
  m_Icon: {fileID: 0}
  m_NavMeshLayer: 0
  m_StaticEditorFlags: 0
  m_IsActive: 1
--- !u!4 &7737271064008883737
Transform:
  m_ObjectHideFlags: 0
  m_CorrespondingSourceObject: {fileID: 0}
  m_PrefabInstance: {fileID: 0}
  m_PrefabAsset: {fileID: 0}
  m_GameObject: {fileID: 6008037928961672453}
  m_LocalRotation: {x: -0, y: -0, z: -0, w: 1}
  m_LocalPosition: {x: 0, y: 0, z: 0}
  m_LocalScale: {x: 1, y: 1, z: 1}
  m_ConstrainProportionsScale: 0
  m_Children: []
  m_Father: {fileID: 1277263747324675940}
  m_RootOrder: 0
  m_LocalEulerAnglesHint: {x: 0, y: 0, z: 0}
--- !u!1839735485 &2353187499219711789
Tilemap:
  m_ObjectHideFlags: 0
  m_CorrespondingSourceObject: {fileID: 0}
  m_PrefabInstance: {fileID: 0}
  m_PrefabAsset: {fileID: 0}
  m_GameObject: {fileID: 6008037928961672453}
  m_Enabled: 1
  m_Tiles:
  - first: {x: -2, y: -7, z: 0}
    second:
      serializedVersion: 2
      m_TileIndex: 126
      m_TileSpriteIndex: 126
      m_TileMatrixIndex: 0
      m_TileColorIndex: 0
      m_TileObjectToInstantiateIndex: 65535
      dummyAlignment: 0
      m_AllTileFlags: 1073741825
  - first: {x: -1, y: -7, z: 0}
    second:
      serializedVersion: 2
      m_TileIndex: 127
      m_TileSpriteIndex: 127
      m_TileMatrixIndex: 0
      m_TileColorIndex: 0
      m_TileObjectToInstantiateIndex: 65535
      dummyAlignment: 0
      m_AllTileFlags: 1073741825
  - first: {x: 0, y: -7, z: 0}
    second:
      serializedVersion: 2
      m_TileIndex: 128
      m_TileSpriteIndex: 128
      m_TileMatrixIndex: 0
      m_TileColorIndex: 0
      m_TileObjectToInstantiateIndex: 65535
      dummyAlignment: 0
      m_AllTileFlags: 1073741825
  - first: {x: 1, y: -7, z: 0}
    second:
      serializedVersion: 2
      m_TileIndex: 129
      m_TileSpriteIndex: 129
      m_TileMatrixIndex: 0
      m_TileColorIndex: 0
      m_TileObjectToInstantiateIndex: 65535
      dummyAlignment: 0
      m_AllTileFlags: 1073741825
  - first: {x: 2, y: -7, z: 0}
    second:
      serializedVersion: 2
      m_TileIndex: 130
      m_TileSpriteIndex: 130
      m_TileMatrixIndex: 0
      m_TileColorIndex: 0
      m_TileObjectToInstantiateIndex: 65535
      dummyAlignment: 0
      m_AllTileFlags: 1073741825
  - first: {x: 3, y: -7, z: 0}
    second:
      serializedVersion: 2
      m_TileIndex: 131
      m_TileSpriteIndex: 131
      m_TileMatrixIndex: 0
      m_TileColorIndex: 0
      m_TileObjectToInstantiateIndex: 65535
      dummyAlignment: 0
      m_AllTileFlags: 1073741825
  - first: {x: 4, y: -7, z: 0}
    second:
      serializedVersion: 2
      m_TileIndex: 132
      m_TileSpriteIndex: 132
      m_TileMatrixIndex: 0
      m_TileColorIndex: 0
      m_TileObjectToInstantiateIndex: 65535
      dummyAlignment: 0
      m_AllTileFlags: 1073741825
  - first: {x: 5, y: -7, z: 0}
    second:
      serializedVersion: 2
      m_TileIndex: 133
      m_TileSpriteIndex: 133
      m_TileMatrixIndex: 0
      m_TileColorIndex: 0
      m_TileObjectToInstantiateIndex: 65535
      dummyAlignment: 0
      m_AllTileFlags: 1073741825
  - first: {x: 6, y: -7, z: 0}
    second:
      serializedVersion: 2
      m_TileIndex: 134
      m_TileSpriteIndex: 134
      m_TileMatrixIndex: 0
      m_TileColorIndex: 0
      m_TileObjectToInstantiateIndex: 65535
      dummyAlignment: 0
      m_AllTileFlags: 1073741825
  - first: {x: 7, y: -7, z: 0}
    second:
      serializedVersion: 2
      m_TileIndex: 135
      m_TileSpriteIndex: 135
      m_TileMatrixIndex: 0
      m_TileColorIndex: 0
      m_TileObjectToInstantiateIndex: 65535
      dummyAlignment: 0
      m_AllTileFlags: 1073741825
  - first: {x: 8, y: -7, z: 0}
    second:
      serializedVersion: 2
      m_TileIndex: 136
      m_TileSpriteIndex: 136
      m_TileMatrixIndex: 0
      m_TileColorIndex: 0
      m_TileObjectToInstantiateIndex: 65535
      dummyAlignment: 0
      m_AllTileFlags: 1073741825
  - first: {x: 9, y: -7, z: 0}
    second:
      serializedVersion: 2
      m_TileIndex: 137
      m_TileSpriteIndex: 137
      m_TileMatrixIndex: 0
      m_TileColorIndex: 0
      m_TileObjectToInstantiateIndex: 65535
      dummyAlignment: 0
      m_AllTileFlags: 1073741825
  - first: {x: 10, y: -7, z: 0}
    second:
      serializedVersion: 2
      m_TileIndex: 138
      m_TileSpriteIndex: 138
      m_TileMatrixIndex: 0
      m_TileColorIndex: 0
      m_TileObjectToInstantiateIndex: 65535
      dummyAlignment: 0
      m_AllTileFlags: 1073741825
  - first: {x: 11, y: -7, z: 0}
    second:
      serializedVersion: 2
      m_TileIndex: 139
      m_TileSpriteIndex: 139
      m_TileMatrixIndex: 0
      m_TileColorIndex: 0
      m_TileObjectToInstantiateIndex: 65535
      dummyAlignment: 0
      m_AllTileFlags: 1073741825
  - first: {x: 12, y: -7, z: 0}
    second:
      serializedVersion: 2
      m_TileIndex: 140
      m_TileSpriteIndex: 140
      m_TileMatrixIndex: 0
      m_TileColorIndex: 0
      m_TileObjectToInstantiateIndex: 65535
      dummyAlignment: 0
      m_AllTileFlags: 1073741825
  - first: {x: 13, y: -7, z: 0}
    second:
      serializedVersion: 2
      m_TileIndex: 141
      m_TileSpriteIndex: 141
      m_TileMatrixIndex: 0
      m_TileColorIndex: 0
      m_TileObjectToInstantiateIndex: 65535
      dummyAlignment: 0
      m_AllTileFlags: 1073741825
  - first: {x: 14, y: -7, z: 0}
    second:
      serializedVersion: 2
      m_TileIndex: 142
      m_TileSpriteIndex: 142
      m_TileMatrixIndex: 0
      m_TileColorIndex: 0
      m_TileObjectToInstantiateIndex: 65535
      dummyAlignment: 0
      m_AllTileFlags: 1073741825
  - first: {x: 15, y: -7, z: 0}
    second:
      serializedVersion: 2
      m_TileIndex: 143
      m_TileSpriteIndex: 143
      m_TileMatrixIndex: 0
      m_TileColorIndex: 0
      m_TileObjectToInstantiateIndex: 65535
      dummyAlignment: 0
      m_AllTileFlags: 1073741825
  - first: {x: 16, y: -7, z: 0}
    second:
      serializedVersion: 2
      m_TileIndex: 144
      m_TileSpriteIndex: 144
      m_TileMatrixIndex: 0
      m_TileColorIndex: 0
      m_TileObjectToInstantiateIndex: 65535
      dummyAlignment: 0
      m_AllTileFlags: 1073741825
  - first: {x: 17, y: -7, z: 0}
    second:
      serializedVersion: 2
      m_TileIndex: 145
      m_TileSpriteIndex: 145
      m_TileMatrixIndex: 0
      m_TileColorIndex: 0
      m_TileObjectToInstantiateIndex: 65535
      dummyAlignment: 0
      m_AllTileFlags: 1073741825
  - first: {x: -2, y: -6, z: 0}
    second:
      serializedVersion: 2
      m_TileIndex: 106
      m_TileSpriteIndex: 106
      m_TileMatrixIndex: 0
      m_TileColorIndex: 0
      m_TileObjectToInstantiateIndex: 65535
      dummyAlignment: 0
      m_AllTileFlags: 1073741825
  - first: {x: -1, y: -6, z: 0}
    second:
      serializedVersion: 2
      m_TileIndex: 107
      m_TileSpriteIndex: 107
      m_TileMatrixIndex: 0
      m_TileColorIndex: 0
      m_TileObjectToInstantiateIndex: 65535
      dummyAlignment: 0
      m_AllTileFlags: 1073741825
  - first: {x: 0, y: -6, z: 0}
    second:
      serializedVersion: 2
      m_TileIndex: 108
      m_TileSpriteIndex: 108
      m_TileMatrixIndex: 0
      m_TileColorIndex: 0
      m_TileObjectToInstantiateIndex: 65535
      dummyAlignment: 0
      m_AllTileFlags: 1073741825
  - first: {x: 1, y: -6, z: 0}
    second:
      serializedVersion: 2
      m_TileIndex: 109
      m_TileSpriteIndex: 109
      m_TileMatrixIndex: 0
      m_TileColorIndex: 0
      m_TileObjectToInstantiateIndex: 65535
      dummyAlignment: 0
      m_AllTileFlags: 1073741825
  - first: {x: 2, y: -6, z: 0}
    second:
      serializedVersion: 2
      m_TileIndex: 110
      m_TileSpriteIndex: 110
      m_TileMatrixIndex: 0
      m_TileColorIndex: 0
      m_TileObjectToInstantiateIndex: 65535
      dummyAlignment: 0
      m_AllTileFlags: 1073741825
  - first: {x: 3, y: -6, z: 0}
    second:
      serializedVersion: 2
      m_TileIndex: 111
      m_TileSpriteIndex: 111
      m_TileMatrixIndex: 0
      m_TileColorIndex: 0
      m_TileObjectToInstantiateIndex: 65535
      dummyAlignment: 0
      m_AllTileFlags: 1073741825
  - first: {x: 4, y: -6, z: 0}
    second:
      serializedVersion: 2
      m_TileIndex: 112
      m_TileSpriteIndex: 112
      m_TileMatrixIndex: 0
      m_TileColorIndex: 0
      m_TileObjectToInstantiateIndex: 65535
      dummyAlignment: 0
      m_AllTileFlags: 1073741825
  - first: {x: 5, y: -6, z: 0}
    second:
      serializedVersion: 2
      m_TileIndex: 113
      m_TileSpriteIndex: 113
      m_TileMatrixIndex: 0
      m_TileColorIndex: 0
      m_TileObjectToInstantiateIndex: 65535
      dummyAlignment: 0
      m_AllTileFlags: 1073741825
  - first: {x: 6, y: -6, z: 0}
    second:
      serializedVersion: 2
      m_TileIndex: 114
      m_TileSpriteIndex: 114
      m_TileMatrixIndex: 0
      m_TileColorIndex: 0
      m_TileObjectToInstantiateIndex: 65535
      dummyAlignment: 0
      m_AllTileFlags: 1073741825
  - first: {x: 7, y: -6, z: 0}
    second:
      serializedVersion: 2
      m_TileIndex: 115
      m_TileSpriteIndex: 115
      m_TileMatrixIndex: 0
      m_TileColorIndex: 0
      m_TileObjectToInstantiateIndex: 65535
      dummyAlignment: 0
      m_AllTileFlags: 1073741825
  - first: {x: 8, y: -6, z: 0}
    second:
      serializedVersion: 2
      m_TileIndex: 116
      m_TileSpriteIndex: 116
      m_TileMatrixIndex: 0
      m_TileColorIndex: 0
      m_TileObjectToInstantiateIndex: 65535
      dummyAlignment: 0
      m_AllTileFlags: 1073741825
  - first: {x: 9, y: -6, z: 0}
    second:
      serializedVersion: 2
      m_TileIndex: 117
      m_TileSpriteIndex: 117
      m_TileMatrixIndex: 0
      m_TileColorIndex: 0
      m_TileObjectToInstantiateIndex: 65535
      dummyAlignment: 0
      m_AllTileFlags: 1073741825
  - first: {x: 10, y: -6, z: 0}
    second:
      serializedVersion: 2
      m_TileIndex: 118
      m_TileSpriteIndex: 118
      m_TileMatrixIndex: 0
      m_TileColorIndex: 0
      m_TileObjectToInstantiateIndex: 65535
      dummyAlignment: 0
      m_AllTileFlags: 1073741825
  - first: {x: 11, y: -6, z: 0}
    second:
      serializedVersion: 2
      m_TileIndex: 119
      m_TileSpriteIndex: 119
      m_TileMatrixIndex: 0
      m_TileColorIndex: 0
      m_TileObjectToInstantiateIndex: 65535
      dummyAlignment: 0
      m_AllTileFlags: 1073741825
  - first: {x: 12, y: -6, z: 0}
    second:
      serializedVersion: 2
      m_TileIndex: 120
      m_TileSpriteIndex: 120
      m_TileMatrixIndex: 0
      m_TileColorIndex: 0
      m_TileObjectToInstantiateIndex: 65535
      dummyAlignment: 0
      m_AllTileFlags: 1073741825
  - first: {x: 13, y: -6, z: 0}
    second:
      serializedVersion: 2
      m_TileIndex: 121
      m_TileSpriteIndex: 121
      m_TileMatrixIndex: 0
      m_TileColorIndex: 0
      m_TileObjectToInstantiateIndex: 65535
      dummyAlignment: 0
      m_AllTileFlags: 1073741825
  - first: {x: 14, y: -6, z: 0}
    second:
      serializedVersion: 2
      m_TileIndex: 122
      m_TileSpriteIndex: 122
      m_TileMatrixIndex: 0
      m_TileColorIndex: 0
      m_TileObjectToInstantiateIndex: 65535
      dummyAlignment: 0
      m_AllTileFlags: 1073741825
  - first: {x: 15, y: -6, z: 0}
    second:
      serializedVersion: 2
      m_TileIndex: 123
      m_TileSpriteIndex: 123
      m_TileMatrixIndex: 0
      m_TileColorIndex: 0
      m_TileObjectToInstantiateIndex: 65535
      dummyAlignment: 0
      m_AllTileFlags: 1073741825
  - first: {x: 16, y: -6, z: 0}
    second:
      serializedVersion: 2
      m_TileIndex: 124
      m_TileSpriteIndex: 124
      m_TileMatrixIndex: 0
      m_TileColorIndex: 0
      m_TileObjectToInstantiateIndex: 65535
      dummyAlignment: 0
      m_AllTileFlags: 1073741825
  - first: {x: 17, y: -6, z: 0}
    second:
      serializedVersion: 2
      m_TileIndex: 125
      m_TileSpriteIndex: 125
      m_TileMatrixIndex: 0
      m_TileColorIndex: 0
      m_TileObjectToInstantiateIndex: 65535
      dummyAlignment: 0
      m_AllTileFlags: 1073741825
  - first: {x: -2, y: -5, z: 0}
    second:
      serializedVersion: 2
      m_TileIndex: 86
      m_TileSpriteIndex: 86
      m_TileMatrixIndex: 0
      m_TileColorIndex: 0
      m_TileObjectToInstantiateIndex: 65535
      dummyAlignment: 0
      m_AllTileFlags: 1073741825
  - first: {x: -1, y: -5, z: 0}
    second:
      serializedVersion: 2
      m_TileIndex: 87
      m_TileSpriteIndex: 87
      m_TileMatrixIndex: 0
      m_TileColorIndex: 0
      m_TileObjectToInstantiateIndex: 65535
      dummyAlignment: 0
      m_AllTileFlags: 1073741825
  - first: {x: 0, y: -5, z: 0}
    second:
      serializedVersion: 2
      m_TileIndex: 88
      m_TileSpriteIndex: 88
      m_TileMatrixIndex: 0
      m_TileColorIndex: 0
      m_TileObjectToInstantiateIndex: 65535
      dummyAlignment: 0
      m_AllTileFlags: 1073741825
  - first: {x: 1, y: -5, z: 0}
    second:
      serializedVersion: 2
      m_TileIndex: 89
      m_TileSpriteIndex: 89
      m_TileMatrixIndex: 0
      m_TileColorIndex: 0
      m_TileObjectToInstantiateIndex: 65535
      dummyAlignment: 0
      m_AllTileFlags: 1073741825
  - first: {x: 2, y: -5, z: 0}
    second:
      serializedVersion: 2
      m_TileIndex: 90
      m_TileSpriteIndex: 90
      m_TileMatrixIndex: 0
      m_TileColorIndex: 0
      m_TileObjectToInstantiateIndex: 65535
      dummyAlignment: 0
      m_AllTileFlags: 1073741825
  - first: {x: 3, y: -5, z: 0}
    second:
      serializedVersion: 2
      m_TileIndex: 91
      m_TileSpriteIndex: 91
      m_TileMatrixIndex: 0
      m_TileColorIndex: 0
      m_TileObjectToInstantiateIndex: 65535
      dummyAlignment: 0
      m_AllTileFlags: 1073741825
  - first: {x: 4, y: -5, z: 0}
    second:
      serializedVersion: 2
      m_TileIndex: 92
      m_TileSpriteIndex: 92
      m_TileMatrixIndex: 0
      m_TileColorIndex: 0
      m_TileObjectToInstantiateIndex: 65535
      dummyAlignment: 0
      m_AllTileFlags: 1073741825
  - first: {x: 5, y: -5, z: 0}
    second:
      serializedVersion: 2
      m_TileIndex: 93
      m_TileSpriteIndex: 93
      m_TileMatrixIndex: 0
      m_TileColorIndex: 0
      m_TileObjectToInstantiateIndex: 65535
      dummyAlignment: 0
      m_AllTileFlags: 1073741825
  - first: {x: 6, y: -5, z: 0}
    second:
      serializedVersion: 2
      m_TileIndex: 94
      m_TileSpriteIndex: 94
      m_TileMatrixIndex: 0
      m_TileColorIndex: 0
      m_TileObjectToInstantiateIndex: 65535
      dummyAlignment: 0
      m_AllTileFlags: 1073741825
  - first: {x: 7, y: -5, z: 0}
    second:
      serializedVersion: 2
      m_TileIndex: 95
      m_TileSpriteIndex: 95
      m_TileMatrixIndex: 0
      m_TileColorIndex: 0
      m_TileObjectToInstantiateIndex: 65535
      dummyAlignment: 0
      m_AllTileFlags: 1073741825
  - first: {x: 8, y: -5, z: 0}
    second:
      serializedVersion: 2
      m_TileIndex: 96
      m_TileSpriteIndex: 96
      m_TileMatrixIndex: 0
      m_TileColorIndex: 0
      m_TileObjectToInstantiateIndex: 65535
      dummyAlignment: 0
      m_AllTileFlags: 1073741825
  - first: {x: 9, y: -5, z: 0}
    second:
      serializedVersion: 2
      m_TileIndex: 97
      m_TileSpriteIndex: 97
      m_TileMatrixIndex: 0
      m_TileColorIndex: 0
      m_TileObjectToInstantiateIndex: 65535
      dummyAlignment: 0
      m_AllTileFlags: 1073741825
  - first: {x: 10, y: -5, z: 0}
    second:
      serializedVersion: 2
      m_TileIndex: 98
      m_TileSpriteIndex: 98
      m_TileMatrixIndex: 0
      m_TileColorIndex: 0
      m_TileObjectToInstantiateIndex: 65535
      dummyAlignment: 0
      m_AllTileFlags: 1073741825
  - first: {x: 11, y: -5, z: 0}
    second:
      serializedVersion: 2
      m_TileIndex: 99
      m_TileSpriteIndex: 99
      m_TileMatrixIndex: 0
      m_TileColorIndex: 0
      m_TileObjectToInstantiateIndex: 65535
      dummyAlignment: 0
      m_AllTileFlags: 1073741825
  - first: {x: 12, y: -5, z: 0}
    second:
      serializedVersion: 2
      m_TileIndex: 100
      m_TileSpriteIndex: 100
      m_TileMatrixIndex: 0
      m_TileColorIndex: 0
      m_TileObjectToInstantiateIndex: 65535
      dummyAlignment: 0
      m_AllTileFlags: 1073741825
  - first: {x: 13, y: -5, z: 0}
    second:
      serializedVersion: 2
      m_TileIndex: 101
      m_TileSpriteIndex: 101
      m_TileMatrixIndex: 0
      m_TileColorIndex: 0
      m_TileObjectToInstantiateIndex: 65535
      dummyAlignment: 0
      m_AllTileFlags: 1073741825
  - first: {x: 14, y: -5, z: 0}
    second:
      serializedVersion: 2
      m_TileIndex: 102
      m_TileSpriteIndex: 102
      m_TileMatrixIndex: 0
      m_TileColorIndex: 0
      m_TileObjectToInstantiateIndex: 65535
      dummyAlignment: 0
      m_AllTileFlags: 1073741825
  - first: {x: 15, y: -5, z: 0}
    second:
      serializedVersion: 2
      m_TileIndex: 103
      m_TileSpriteIndex: 103
      m_TileMatrixIndex: 0
      m_TileColorIndex: 0
      m_TileObjectToInstantiateIndex: 65535
      dummyAlignment: 0
      m_AllTileFlags: 1073741825
  - first: {x: 16, y: -5, z: 0}
    second:
      serializedVersion: 2
      m_TileIndex: 104
      m_TileSpriteIndex: 104
      m_TileMatrixIndex: 0
      m_TileColorIndex: 0
      m_TileObjectToInstantiateIndex: 65535
      dummyAlignment: 0
      m_AllTileFlags: 1073741825
  - first: {x: 17, y: -5, z: 0}
    second:
      serializedVersion: 2
      m_TileIndex: 105
      m_TileSpriteIndex: 105
      m_TileMatrixIndex: 0
      m_TileColorIndex: 0
      m_TileObjectToInstantiateIndex: 65535
      dummyAlignment: 0
      m_AllTileFlags: 1073741825
  - first: {x: -2, y: -4, z: 0}
    second:
      serializedVersion: 2
      m_TileIndex: 66
      m_TileSpriteIndex: 66
      m_TileMatrixIndex: 0
      m_TileColorIndex: 0
      m_TileObjectToInstantiateIndex: 65535
      dummyAlignment: 0
      m_AllTileFlags: 1073741825
  - first: {x: -1, y: -4, z: 0}
    second:
      serializedVersion: 2
      m_TileIndex: 67
      m_TileSpriteIndex: 67
      m_TileMatrixIndex: 0
      m_TileColorIndex: 0
      m_TileObjectToInstantiateIndex: 65535
      dummyAlignment: 0
      m_AllTileFlags: 1073741825
  - first: {x: 0, y: -4, z: 0}
    second:
      serializedVersion: 2
      m_TileIndex: 68
      m_TileSpriteIndex: 68
      m_TileMatrixIndex: 0
      m_TileColorIndex: 0
      m_TileObjectToInstantiateIndex: 65535
      dummyAlignment: 0
      m_AllTileFlags: 1073741825
  - first: {x: 1, y: -4, z: 0}
    second:
      serializedVersion: 2
      m_TileIndex: 69
      m_TileSpriteIndex: 69
      m_TileMatrixIndex: 0
      m_TileColorIndex: 0
      m_TileObjectToInstantiateIndex: 65535
      dummyAlignment: 0
      m_AllTileFlags: 1073741825
  - first: {x: 2, y: -4, z: 0}
    second:
      serializedVersion: 2
      m_TileIndex: 70
      m_TileSpriteIndex: 70
      m_TileMatrixIndex: 0
      m_TileColorIndex: 0
      m_TileObjectToInstantiateIndex: 65535
      dummyAlignment: 0
      m_AllTileFlags: 1073741825
  - first: {x: 3, y: -4, z: 0}
    second:
      serializedVersion: 2
      m_TileIndex: 71
      m_TileSpriteIndex: 71
      m_TileMatrixIndex: 0
      m_TileColorIndex: 0
      m_TileObjectToInstantiateIndex: 65535
      dummyAlignment: 0
      m_AllTileFlags: 1073741825
  - first: {x: 4, y: -4, z: 0}
    second:
      serializedVersion: 2
      m_TileIndex: 72
      m_TileSpriteIndex: 72
      m_TileMatrixIndex: 0
      m_TileColorIndex: 0
      m_TileObjectToInstantiateIndex: 65535
      dummyAlignment: 0
      m_AllTileFlags: 1073741825
  - first: {x: 5, y: -4, z: 0}
    second:
      serializedVersion: 2
      m_TileIndex: 73
      m_TileSpriteIndex: 73
      m_TileMatrixIndex: 0
      m_TileColorIndex: 0
      m_TileObjectToInstantiateIndex: 65535
      dummyAlignment: 0
      m_AllTileFlags: 1073741825
  - first: {x: 6, y: -4, z: 0}
    second:
      serializedVersion: 2
      m_TileIndex: 74
      m_TileSpriteIndex: 74
      m_TileMatrixIndex: 0
      m_TileColorIndex: 0
      m_TileObjectToInstantiateIndex: 65535
      dummyAlignment: 0
      m_AllTileFlags: 1073741825
  - first: {x: 7, y: -4, z: 0}
    second:
      serializedVersion: 2
      m_TileIndex: 75
      m_TileSpriteIndex: 75
      m_TileMatrixIndex: 0
      m_TileColorIndex: 0
      m_TileObjectToInstantiateIndex: 65535
      dummyAlignment: 0
      m_AllTileFlags: 1073741825
  - first: {x: 8, y: -4, z: 0}
    second:
      serializedVersion: 2
      m_TileIndex: 76
      m_TileSpriteIndex: 76
      m_TileMatrixIndex: 0
      m_TileColorIndex: 0
      m_TileObjectToInstantiateIndex: 65535
      dummyAlignment: 0
      m_AllTileFlags: 1073741825
  - first: {x: 9, y: -4, z: 0}
    second:
      serializedVersion: 2
      m_TileIndex: 77
      m_TileSpriteIndex: 77
      m_TileMatrixIndex: 0
      m_TileColorIndex: 0
      m_TileObjectToInstantiateIndex: 65535
      dummyAlignment: 0
      m_AllTileFlags: 1073741825
  - first: {x: 10, y: -4, z: 0}
    second:
      serializedVersion: 2
      m_TileIndex: 78
      m_TileSpriteIndex: 78
      m_TileMatrixIndex: 0
      m_TileColorIndex: 0
      m_TileObjectToInstantiateIndex: 65535
      dummyAlignment: 0
      m_AllTileFlags: 1073741825
  - first: {x: 11, y: -4, z: 0}
    second:
      serializedVersion: 2
      m_TileIndex: 79
      m_TileSpriteIndex: 79
      m_TileMatrixIndex: 0
      m_TileColorIndex: 0
      m_TileObjectToInstantiateIndex: 65535
      dummyAlignment: 0
      m_AllTileFlags: 1073741825
  - first: {x: 12, y: -4, z: 0}
    second:
      serializedVersion: 2
      m_TileIndex: 80
      m_TileSpriteIndex: 80
      m_TileMatrixIndex: 0
      m_TileColorIndex: 0
      m_TileObjectToInstantiateIndex: 65535
      dummyAlignment: 0
      m_AllTileFlags: 1073741825
  - first: {x: 13, y: -4, z: 0}
    second:
      serializedVersion: 2
      m_TileIndex: 81
      m_TileSpriteIndex: 81
      m_TileMatrixIndex: 0
      m_TileColorIndex: 0
      m_TileObjectToInstantiateIndex: 65535
      dummyAlignment: 0
      m_AllTileFlags: 1073741825
  - first: {x: 14, y: -4, z: 0}
    second:
      serializedVersion: 2
      m_TileIndex: 82
      m_TileSpriteIndex: 82
      m_TileMatrixIndex: 0
      m_TileColorIndex: 0
      m_TileObjectToInstantiateIndex: 65535
      dummyAlignment: 0
      m_AllTileFlags: 1073741825
  - first: {x: 15, y: -4, z: 0}
    second:
      serializedVersion: 2
      m_TileIndex: 83
      m_TileSpriteIndex: 83
      m_TileMatrixIndex: 0
      m_TileColorIndex: 0
      m_TileObjectToInstantiateIndex: 65535
      dummyAlignment: 0
      m_AllTileFlags: 1073741825
  - first: {x: 16, y: -4, z: 0}
    second:
      serializedVersion: 2
      m_TileIndex: 84
      m_TileSpriteIndex: 84
      m_TileMatrixIndex: 0
      m_TileColorIndex: 0
      m_TileObjectToInstantiateIndex: 65535
      dummyAlignment: 0
      m_AllTileFlags: 1073741825
  - first: {x: 17, y: -4, z: 0}
    second:
      serializedVersion: 2
      m_TileIndex: 85
      m_TileSpriteIndex: 85
      m_TileMatrixIndex: 0
      m_TileColorIndex: 0
      m_TileObjectToInstantiateIndex: 65535
      dummyAlignment: 0
      m_AllTileFlags: 1073741825
  - first: {x: -2, y: -3, z: 0}
    second:
      serializedVersion: 2
      m_TileIndex: 46
      m_TileSpriteIndex: 46
      m_TileMatrixIndex: 0
      m_TileColorIndex: 0
      m_TileObjectToInstantiateIndex: 65535
      dummyAlignment: 0
      m_AllTileFlags: 1073741825
  - first: {x: -1, y: -3, z: 0}
    second:
      serializedVersion: 2
      m_TileIndex: 47
      m_TileSpriteIndex: 47
      m_TileMatrixIndex: 0
      m_TileColorIndex: 0
      m_TileObjectToInstantiateIndex: 65535
      dummyAlignment: 0
      m_AllTileFlags: 1073741825
  - first: {x: 0, y: -3, z: 0}
    second:
      serializedVersion: 2
      m_TileIndex: 48
      m_TileSpriteIndex: 48
      m_TileMatrixIndex: 0
      m_TileColorIndex: 0
      m_TileObjectToInstantiateIndex: 65535
      dummyAlignment: 0
      m_AllTileFlags: 1073741825
  - first: {x: 1, y: -3, z: 0}
    second:
      serializedVersion: 2
      m_TileIndex: 49
      m_TileSpriteIndex: 49
      m_TileMatrixIndex: 0
      m_TileColorIndex: 0
      m_TileObjectToInstantiateIndex: 65535
      dummyAlignment: 0
      m_AllTileFlags: 1073741825
  - first: {x: 2, y: -3, z: 0}
    second:
      serializedVersion: 2
      m_TileIndex: 50
      m_TileSpriteIndex: 50
      m_TileMatrixIndex: 0
      m_TileColorIndex: 0
      m_TileObjectToInstantiateIndex: 65535
      dummyAlignment: 0
      m_AllTileFlags: 1073741825
  - first: {x: 3, y: -3, z: 0}
    second:
      serializedVersion: 2
      m_TileIndex: 51
      m_TileSpriteIndex: 51
      m_TileMatrixIndex: 0
      m_TileColorIndex: 0
      m_TileObjectToInstantiateIndex: 65535
      dummyAlignment: 0
      m_AllTileFlags: 1073741825
  - first: {x: 4, y: -3, z: 0}
    second:
      serializedVersion: 2
      m_TileIndex: 52
      m_TileSpriteIndex: 52
      m_TileMatrixIndex: 0
      m_TileColorIndex: 0
      m_TileObjectToInstantiateIndex: 65535
      dummyAlignment: 0
      m_AllTileFlags: 1073741825
  - first: {x: 5, y: -3, z: 0}
    second:
      serializedVersion: 2
      m_TileIndex: 53
      m_TileSpriteIndex: 53
      m_TileMatrixIndex: 0
      m_TileColorIndex: 0
      m_TileObjectToInstantiateIndex: 65535
      dummyAlignment: 0
      m_AllTileFlags: 1073741825
  - first: {x: 6, y: -3, z: 0}
    second:
      serializedVersion: 2
      m_TileIndex: 54
      m_TileSpriteIndex: 54
      m_TileMatrixIndex: 0
      m_TileColorIndex: 0
      m_TileObjectToInstantiateIndex: 65535
      dummyAlignment: 0
      m_AllTileFlags: 1073741825
  - first: {x: 7, y: -3, z: 0}
    second:
      serializedVersion: 2
      m_TileIndex: 55
      m_TileSpriteIndex: 55
      m_TileMatrixIndex: 0
      m_TileColorIndex: 0
      m_TileObjectToInstantiateIndex: 65535
      dummyAlignment: 0
      m_AllTileFlags: 1073741825
  - first: {x: 8, y: -3, z: 0}
    second:
      serializedVersion: 2
      m_TileIndex: 56
      m_TileSpriteIndex: 56
      m_TileMatrixIndex: 0
      m_TileColorIndex: 0
      m_TileObjectToInstantiateIndex: 65535
      dummyAlignment: 0
      m_AllTileFlags: 1073741825
  - first: {x: 9, y: -3, z: 0}
    second:
      serializedVersion: 2
      m_TileIndex: 57
      m_TileSpriteIndex: 57
      m_TileMatrixIndex: 0
      m_TileColorIndex: 0
      m_TileObjectToInstantiateIndex: 65535
      dummyAlignment: 0
      m_AllTileFlags: 1073741825
  - first: {x: 10, y: -3, z: 0}
    second:
      serializedVersion: 2
      m_TileIndex: 58
      m_TileSpriteIndex: 58
      m_TileMatrixIndex: 0
      m_TileColorIndex: 0
      m_TileObjectToInstantiateIndex: 65535
      dummyAlignment: 0
      m_AllTileFlags: 1073741825
  - first: {x: 11, y: -3, z: 0}
    second:
      serializedVersion: 2
      m_TileIndex: 59
      m_TileSpriteIndex: 59
      m_TileMatrixIndex: 0
      m_TileColorIndex: 0
      m_TileObjectToInstantiateIndex: 65535
      dummyAlignment: 0
      m_AllTileFlags: 1073741825
  - first: {x: 12, y: -3, z: 0}
    second:
      serializedVersion: 2
      m_TileIndex: 60
      m_TileSpriteIndex: 60
      m_TileMatrixIndex: 0
      m_TileColorIndex: 0
      m_TileObjectToInstantiateIndex: 65535
      dummyAlignment: 0
      m_AllTileFlags: 1073741825
  - first: {x: 13, y: -3, z: 0}
    second:
      serializedVersion: 2
      m_TileIndex: 61
      m_TileSpriteIndex: 61
      m_TileMatrixIndex: 0
      m_TileColorIndex: 0
      m_TileObjectToInstantiateIndex: 65535
      dummyAlignment: 0
      m_AllTileFlags: 1073741825
  - first: {x: 14, y: -3, z: 0}
    second:
      serializedVersion: 2
      m_TileIndex: 62
      m_TileSpriteIndex: 62
      m_TileMatrixIndex: 0
      m_TileColorIndex: 0
      m_TileObjectToInstantiateIndex: 65535
      dummyAlignment: 0
      m_AllTileFlags: 1073741825
  - first: {x: 15, y: -3, z: 0}
    second:
      serializedVersion: 2
      m_TileIndex: 63
      m_TileSpriteIndex: 63
      m_TileMatrixIndex: 0
      m_TileColorIndex: 0
      m_TileObjectToInstantiateIndex: 65535
      dummyAlignment: 0
      m_AllTileFlags: 1073741825
  - first: {x: 16, y: -3, z: 0}
    second:
      serializedVersion: 2
      m_TileIndex: 64
      m_TileSpriteIndex: 64
      m_TileMatrixIndex: 0
      m_TileColorIndex: 0
      m_TileObjectToInstantiateIndex: 65535
      dummyAlignment: 0
      m_AllTileFlags: 1073741825
  - first: {x: 17, y: -3, z: 0}
    second:
      serializedVersion: 2
      m_TileIndex: 65
      m_TileSpriteIndex: 65
      m_TileMatrixIndex: 0
      m_TileColorIndex: 0
      m_TileObjectToInstantiateIndex: 65535
      dummyAlignment: 0
      m_AllTileFlags: 1073741825
  - first: {x: -2, y: -2, z: 0}
    second:
      serializedVersion: 2
      m_TileIndex: 26
      m_TileSpriteIndex: 26
      m_TileMatrixIndex: 0
      m_TileColorIndex: 0
      m_TileObjectToInstantiateIndex: 65535
      dummyAlignment: 0
      m_AllTileFlags: 1073741825
  - first: {x: -1, y: -2, z: 0}
    second:
      serializedVersion: 2
      m_TileIndex: 27
      m_TileSpriteIndex: 27
      m_TileMatrixIndex: 0
      m_TileColorIndex: 0
      m_TileObjectToInstantiateIndex: 65535
      dummyAlignment: 0
      m_AllTileFlags: 1073741825
  - first: {x: 0, y: -2, z: 0}
    second:
      serializedVersion: 2
      m_TileIndex: 28
      m_TileSpriteIndex: 28
      m_TileMatrixIndex: 0
      m_TileColorIndex: 0
      m_TileObjectToInstantiateIndex: 65535
      dummyAlignment: 0
      m_AllTileFlags: 1073741825
  - first: {x: 1, y: -2, z: 0}
    second:
      serializedVersion: 2
      m_TileIndex: 29
      m_TileSpriteIndex: 29
      m_TileMatrixIndex: 0
      m_TileColorIndex: 0
      m_TileObjectToInstantiateIndex: 65535
      dummyAlignment: 0
      m_AllTileFlags: 1073741825
  - first: {x: 2, y: -2, z: 0}
    second:
      serializedVersion: 2
      m_TileIndex: 30
      m_TileSpriteIndex: 30
      m_TileMatrixIndex: 0
      m_TileColorIndex: 0
      m_TileObjectToInstantiateIndex: 65535
      dummyAlignment: 0
      m_AllTileFlags: 1073741825
  - first: {x: 3, y: -2, z: 0}
    second:
      serializedVersion: 2
      m_TileIndex: 31
      m_TileSpriteIndex: 31
      m_TileMatrixIndex: 0
      m_TileColorIndex: 0
      m_TileObjectToInstantiateIndex: 65535
      dummyAlignment: 0
      m_AllTileFlags: 1073741825
  - first: {x: 4, y: -2, z: 0}
    second:
      serializedVersion: 2
      m_TileIndex: 32
      m_TileSpriteIndex: 32
      m_TileMatrixIndex: 0
      m_TileColorIndex: 0
      m_TileObjectToInstantiateIndex: 65535
      dummyAlignment: 0
      m_AllTileFlags: 1073741825
  - first: {x: 5, y: -2, z: 0}
    second:
      serializedVersion: 2
      m_TileIndex: 33
      m_TileSpriteIndex: 33
      m_TileMatrixIndex: 0
      m_TileColorIndex: 0
      m_TileObjectToInstantiateIndex: 65535
      dummyAlignment: 0
      m_AllTileFlags: 1073741825
  - first: {x: 6, y: -2, z: 0}
    second:
      serializedVersion: 2
      m_TileIndex: 34
      m_TileSpriteIndex: 34
      m_TileMatrixIndex: 0
      m_TileColorIndex: 0
      m_TileObjectToInstantiateIndex: 65535
      dummyAlignment: 0
      m_AllTileFlags: 1073741825
  - first: {x: 7, y: -2, z: 0}
    second:
      serializedVersion: 2
      m_TileIndex: 35
      m_TileSpriteIndex: 35
      m_TileMatrixIndex: 0
      m_TileColorIndex: 0
      m_TileObjectToInstantiateIndex: 65535
      dummyAlignment: 0
      m_AllTileFlags: 1073741825
  - first: {x: 8, y: -2, z: 0}
    second:
      serializedVersion: 2
      m_TileIndex: 36
      m_TileSpriteIndex: 36
      m_TileMatrixIndex: 0
      m_TileColorIndex: 0
      m_TileObjectToInstantiateIndex: 65535
      dummyAlignment: 0
      m_AllTileFlags: 1073741825
  - first: {x: 9, y: -2, z: 0}
    second:
      serializedVersion: 2
      m_TileIndex: 37
      m_TileSpriteIndex: 37
      m_TileMatrixIndex: 0
      m_TileColorIndex: 0
      m_TileObjectToInstantiateIndex: 65535
      dummyAlignment: 0
      m_AllTileFlags: 1073741825
  - first: {x: 10, y: -2, z: 0}
    second:
      serializedVersion: 2
      m_TileIndex: 38
      m_TileSpriteIndex: 38
      m_TileMatrixIndex: 0
      m_TileColorIndex: 0
      m_TileObjectToInstantiateIndex: 65535
      dummyAlignment: 0
      m_AllTileFlags: 1073741825
  - first: {x: 11, y: -2, z: 0}
    second:
      serializedVersion: 2
      m_TileIndex: 39
      m_TileSpriteIndex: 39
      m_TileMatrixIndex: 0
      m_TileColorIndex: 0
      m_TileObjectToInstantiateIndex: 65535
      dummyAlignment: 0
      m_AllTileFlags: 1073741825
  - first: {x: 12, y: -2, z: 0}
    second:
      serializedVersion: 2
      m_TileIndex: 40
      m_TileSpriteIndex: 40
      m_TileMatrixIndex: 0
      m_TileColorIndex: 0
      m_TileObjectToInstantiateIndex: 65535
      dummyAlignment: 0
      m_AllTileFlags: 1073741825
  - first: {x: 13, y: -2, z: 0}
    second:
      serializedVersion: 2
      m_TileIndex: 41
      m_TileSpriteIndex: 41
      m_TileMatrixIndex: 0
      m_TileColorIndex: 0
      m_TileObjectToInstantiateIndex: 65535
      dummyAlignment: 0
      m_AllTileFlags: 1073741825
  - first: {x: 14, y: -2, z: 0}
    second:
      serializedVersion: 2
      m_TileIndex: 42
      m_TileSpriteIndex: 42
      m_TileMatrixIndex: 0
      m_TileColorIndex: 0
      m_TileObjectToInstantiateIndex: 65535
      dummyAlignment: 0
      m_AllTileFlags: 1073741825
  - first: {x: 15, y: -2, z: 0}
    second:
      serializedVersion: 2
      m_TileIndex: 43
      m_TileSpriteIndex: 43
      m_TileMatrixIndex: 0
      m_TileColorIndex: 0
      m_TileObjectToInstantiateIndex: 65535
      dummyAlignment: 0
      m_AllTileFlags: 1073741825
  - first: {x: 16, y: -2, z: 0}
    second:
      serializedVersion: 2
      m_TileIndex: 44
      m_TileSpriteIndex: 44
      m_TileMatrixIndex: 0
      m_TileColorIndex: 0
      m_TileObjectToInstantiateIndex: 65535
      dummyAlignment: 0
      m_AllTileFlags: 1073741825
  - first: {x: 17, y: -2, z: 0}
    second:
      serializedVersion: 2
      m_TileIndex: 45
      m_TileSpriteIndex: 45
      m_TileMatrixIndex: 0
      m_TileColorIndex: 0
      m_TileObjectToInstantiateIndex: 65535
      dummyAlignment: 0
      m_AllTileFlags: 1073741825
  - first: {x: -2, y: -1, z: 0}
    second:
      serializedVersion: 2
      m_TileIndex: 17
      m_TileSpriteIndex: 17
      m_TileMatrixIndex: 0
      m_TileColorIndex: 0
      m_TileObjectToInstantiateIndex: 65535
      dummyAlignment: 0
      m_AllTileFlags: 1073741825
  - first: {x: -1, y: -1, z: 0}
    second:
      serializedVersion: 2
      m_TileIndex: 18
      m_TileSpriteIndex: 18
      m_TileMatrixIndex: 0
      m_TileColorIndex: 0
      m_TileObjectToInstantiateIndex: 65535
      dummyAlignment: 0
      m_AllTileFlags: 1073741825
  - first: {x: 0, y: -1, z: 0}
    second:
      serializedVersion: 2
      m_TileIndex: 19
      m_TileSpriteIndex: 19
      m_TileMatrixIndex: 0
      m_TileColorIndex: 0
      m_TileObjectToInstantiateIndex: 65535
      dummyAlignment: 0
      m_AllTileFlags: 1073741825
  - first: {x: 1, y: -1, z: 0}
    second:
      serializedVersion: 2
      m_TileIndex: 20
      m_TileSpriteIndex: 20
      m_TileMatrixIndex: 0
      m_TileColorIndex: 0
      m_TileObjectToInstantiateIndex: 65535
      dummyAlignment: 0
      m_AllTileFlags: 1073741825
  - first: {x: 13, y: -1, z: 0}
    second:
      serializedVersion: 2
      m_TileIndex: 21
      m_TileSpriteIndex: 21
      m_TileMatrixIndex: 0
      m_TileColorIndex: 0
      m_TileObjectToInstantiateIndex: 65535
      dummyAlignment: 0
      m_AllTileFlags: 1073741825
  - first: {x: 14, y: -1, z: 0}
    second:
      serializedVersion: 2
      m_TileIndex: 22
      m_TileSpriteIndex: 22
      m_TileMatrixIndex: 0
      m_TileColorIndex: 0
      m_TileObjectToInstantiateIndex: 65535
      dummyAlignment: 0
      m_AllTileFlags: 1073741825
  - first: {x: 15, y: -1, z: 0}
    second:
      serializedVersion: 2
      m_TileIndex: 23
      m_TileSpriteIndex: 23
      m_TileMatrixIndex: 0
      m_TileColorIndex: 0
      m_TileObjectToInstantiateIndex: 65535
      dummyAlignment: 0
      m_AllTileFlags: 1073741825
  - first: {x: 16, y: -1, z: 0}
    second:
      serializedVersion: 2
      m_TileIndex: 24
      m_TileSpriteIndex: 24
      m_TileMatrixIndex: 0
      m_TileColorIndex: 0
      m_TileObjectToInstantiateIndex: 65535
      dummyAlignment: 0
      m_AllTileFlags: 1073741825
  - first: {x: 17, y: -1, z: 0}
    second:
      serializedVersion: 2
      m_TileIndex: 25
      m_TileSpriteIndex: 25
      m_TileMatrixIndex: 0
      m_TileColorIndex: 0
      m_TileObjectToInstantiateIndex: 65535
      dummyAlignment: 0
      m_AllTileFlags: 1073741825
  - first: {x: -2, y: 0, z: 0}
    second:
      serializedVersion: 2
      m_TileIndex: 9
      m_TileSpriteIndex: 9
      m_TileMatrixIndex: 0
      m_TileColorIndex: 0
      m_TileObjectToInstantiateIndex: 65535
      dummyAlignment: 0
      m_AllTileFlags: 1073741825
  - first: {x: -1, y: 0, z: 0}
    second:
      serializedVersion: 2
      m_TileIndex: 10
      m_TileSpriteIndex: 10
      m_TileMatrixIndex: 0
      m_TileColorIndex: 0
      m_TileObjectToInstantiateIndex: 65535
      dummyAlignment: 0
      m_AllTileFlags: 1073741825
  - first: {x: 0, y: 0, z: 0}
    second:
      serializedVersion: 2
      m_TileIndex: 11
      m_TileSpriteIndex: 11
      m_TileMatrixIndex: 0
      m_TileColorIndex: 0
      m_TileObjectToInstantiateIndex: 65535
      dummyAlignment: 0
      m_AllTileFlags: 1073741825
  - first: {x: 13, y: 0, z: 0}
    second:
      serializedVersion: 2
      m_TileIndex: 12
      m_TileSpriteIndex: 12
      m_TileMatrixIndex: 0
      m_TileColorIndex: 0
      m_TileObjectToInstantiateIndex: 65535
      dummyAlignment: 0
      m_AllTileFlags: 1073741825
  - first: {x: 14, y: 0, z: 0}
    second:
      serializedVersion: 2
      m_TileIndex: 13
      m_TileSpriteIndex: 13
      m_TileMatrixIndex: 0
      m_TileColorIndex: 0
      m_TileObjectToInstantiateIndex: 65535
      dummyAlignment: 0
      m_AllTileFlags: 1073741825
  - first: {x: 15, y: 0, z: 0}
    second:
      serializedVersion: 2
      m_TileIndex: 14
      m_TileSpriteIndex: 14
      m_TileMatrixIndex: 0
      m_TileColorIndex: 0
      m_TileObjectToInstantiateIndex: 65535
      dummyAlignment: 0
      m_AllTileFlags: 1073741825
  - first: {x: 16, y: 0, z: 0}
    second:
      serializedVersion: 2
      m_TileIndex: 15
      m_TileSpriteIndex: 15
      m_TileMatrixIndex: 0
      m_TileColorIndex: 0
      m_TileObjectToInstantiateIndex: 65535
      dummyAlignment: 0
      m_AllTileFlags: 1073741825
  - first: {x: 17, y: 0, z: 0}
    second:
      serializedVersion: 2
      m_TileIndex: 16
      m_TileSpriteIndex: 16
      m_TileMatrixIndex: 0
      m_TileColorIndex: 0
      m_TileObjectToInstantiateIndex: 65535
      dummyAlignment: 0
      m_AllTileFlags: 1073741825
  - first: {x: -2, y: 1, z: 0}
    second:
      serializedVersion: 2
      m_TileIndex: 0
      m_TileSpriteIndex: 0
      m_TileMatrixIndex: 0
      m_TileColorIndex: 0
      m_TileObjectToInstantiateIndex: 65535
      dummyAlignment: 0
      m_AllTileFlags: 1073741825
  - first: {x: -1, y: 1, z: 0}
    second:
      serializedVersion: 2
      m_TileIndex: 1
      m_TileSpriteIndex: 1
      m_TileMatrixIndex: 0
      m_TileColorIndex: 0
      m_TileObjectToInstantiateIndex: 65535
      dummyAlignment: 0
      m_AllTileFlags: 1073741825
  - first: {x: 0, y: 1, z: 0}
    second:
      serializedVersion: 2
      m_TileIndex: 2
      m_TileSpriteIndex: 2
      m_TileMatrixIndex: 0
      m_TileColorIndex: 0
      m_TileObjectToInstantiateIndex: 65535
      dummyAlignment: 0
      m_AllTileFlags: 1073741825
  - first: {x: 1, y: 1, z: 0}
    second:
      serializedVersion: 2
      m_TileIndex: 3
      m_TileSpriteIndex: 3
      m_TileMatrixIndex: 0
      m_TileColorIndex: 0
      m_TileObjectToInstantiateIndex: 65535
      dummyAlignment: 0
      m_AllTileFlags: 1073741825
  - first: {x: 13, y: 1, z: 0}
    second:
      serializedVersion: 2
      m_TileIndex: 4
      m_TileSpriteIndex: 4
      m_TileMatrixIndex: 0
      m_TileColorIndex: 0
      m_TileObjectToInstantiateIndex: 65535
      dummyAlignment: 0
      m_AllTileFlags: 1073741825
  - first: {x: 14, y: 1, z: 0}
    second:
      serializedVersion: 2
      m_TileIndex: 5
      m_TileSpriteIndex: 5
      m_TileMatrixIndex: 0
      m_TileColorIndex: 0
      m_TileObjectToInstantiateIndex: 65535
      dummyAlignment: 0
      m_AllTileFlags: 1073741825
  - first: {x: 15, y: 1, z: 0}
    second:
      serializedVersion: 2
      m_TileIndex: 6
      m_TileSpriteIndex: 6
      m_TileMatrixIndex: 0
      m_TileColorIndex: 0
      m_TileObjectToInstantiateIndex: 65535
      dummyAlignment: 0
      m_AllTileFlags: 1073741825
  - first: {x: 16, y: 1, z: 0}
    second:
      serializedVersion: 2
      m_TileIndex: 7
      m_TileSpriteIndex: 7
      m_TileMatrixIndex: 0
      m_TileColorIndex: 0
      m_TileObjectToInstantiateIndex: 65535
      dummyAlignment: 0
      m_AllTileFlags: 1073741825
  - first: {x: 17, y: 1, z: 0}
    second:
      serializedVersion: 2
      m_TileIndex: 8
      m_TileSpriteIndex: 8
      m_TileMatrixIndex: 0
      m_TileColorIndex: 0
      m_TileObjectToInstantiateIndex: 65535
      dummyAlignment: 0
      m_AllTileFlags: 1073741825
  m_AnimatedTiles: {}
  m_TileAssetArray:
  - m_RefCount: 1
    m_Data: {fileID: 11400000, guid: 20977e6c7e5b9084ea8d6337b9f820dc, type: 2}
  - m_RefCount: 1
    m_Data: {fileID: 11400000, guid: 0458ac182c71faa43b78e936cd10e7cf, type: 2}
  - m_RefCount: 1
    m_Data: {fileID: 11400000, guid: 33e41e4c22c002b4fb9ccec320c17090, type: 2}
  - m_RefCount: 1
    m_Data: {fileID: 11400000, guid: 64529ca731c936d4f9158ea3dcd6e033, type: 2}
  - m_RefCount: 1
    m_Data: {fileID: 11400000, guid: 1218c88a2a4363a4582686126b990011, type: 2}
  - m_RefCount: 1
    m_Data: {fileID: 11400000, guid: 166e9122c3d466d48a73701b9e725ee7, type: 2}
  - m_RefCount: 1
    m_Data: {fileID: 11400000, guid: 8b49ae5b864206943a1d99b8aa0e4d30, type: 2}
  - m_RefCount: 1
    m_Data: {fileID: 11400000, guid: 1829a592451cf6d4f848cdc050fd8f0f, type: 2}
  - m_RefCount: 1
    m_Data: {fileID: 11400000, guid: e25c4821f9e7c1a4db4759f1c0a6b26c, type: 2}
  - m_RefCount: 1
    m_Data: {fileID: 11400000, guid: d6b2a4a28093dea4ab6705ad7f4530ca, type: 2}
  - m_RefCount: 1
    m_Data: {fileID: 11400000, guid: 45d05e09a0e87e748b41e4b345b19150, type: 2}
  - m_RefCount: 1
    m_Data: {fileID: 11400000, guid: 31f6806de88ebf440bf01058db3443d4, type: 2}
  - m_RefCount: 1
    m_Data: {fileID: 11400000, guid: 999a160dd2d168749b3ae824c35112c6, type: 2}
  - m_RefCount: 1
    m_Data: {fileID: 11400000, guid: 07016feb96f93dc4b816f40b25d6d17e, type: 2}
  - m_RefCount: 1
    m_Data: {fileID: 11400000, guid: 8b45648f441033048b3931e92eef844e, type: 2}
  - m_RefCount: 1
    m_Data: {fileID: 11400000, guid: bae6e726a10e9924498f2aa52c2dce1a, type: 2}
  - m_RefCount: 1
    m_Data: {fileID: 11400000, guid: 45f5782157c88ba40b02d6ef089f10a8, type: 2}
  - m_RefCount: 1
    m_Data: {fileID: 11400000, guid: 2b22d924f0507c242b3710d6376764f9, type: 2}
  - m_RefCount: 1
    m_Data: {fileID: 11400000, guid: 0663ee82afe86f446b0e119636c836fd, type: 2}
  - m_RefCount: 1
    m_Data: {fileID: 11400000, guid: db9276455390d0d4697160d7d30c30d2, type: 2}
  - m_RefCount: 1
    m_Data: {fileID: 11400000, guid: 4318d190a96da22489ac6be3dbc20344, type: 2}
  - m_RefCount: 1
    m_Data: {fileID: 11400000, guid: 3e31be760bcc0744c853a47366a43c82, type: 2}
  - m_RefCount: 1
    m_Data: {fileID: 11400000, guid: 700986955bbd26c4e8875609fadf6438, type: 2}
  - m_RefCount: 1
    m_Data: {fileID: 11400000, guid: a22abca98a9fcd5468d5a87a98af7155, type: 2}
  - m_RefCount: 1
    m_Data: {fileID: 11400000, guid: 6cea2f570f8578844aeeee471958cb98, type: 2}
  - m_RefCount: 1
    m_Data: {fileID: 11400000, guid: e6d2e273f3501d7459400749aed10a4c, type: 2}
  - m_RefCount: 1
    m_Data: {fileID: 11400000, guid: 87307506fbb0e8846b5e544593b860b3, type: 2}
  - m_RefCount: 1
    m_Data: {fileID: 11400000, guid: 595ad7fb96a40d44fa715abc7cfa8461, type: 2}
  - m_RefCount: 1
    m_Data: {fileID: 11400000, guid: 5d0965cf74ed8d24188697cbadea9aa2, type: 2}
  - m_RefCount: 1
    m_Data: {fileID: 11400000, guid: 8508a254b2e8b2346a51e22aabd4578f, type: 2}
  - m_RefCount: 1
    m_Data: {fileID: 11400000, guid: 6ce538b1db7ad2740a08ae0d6ce125c0, type: 2}
  - m_RefCount: 1
    m_Data: {fileID: 11400000, guid: de9125efd0538eb49b208b0d7bbca2fe, type: 2}
  - m_RefCount: 1
    m_Data: {fileID: 11400000, guid: 44c2c9654e9aba242b8eb23b849e6374, type: 2}
  - m_RefCount: 1
    m_Data: {fileID: 11400000, guid: d518062d7d7157841a0331296a50a473, type: 2}
  - m_RefCount: 1
    m_Data: {fileID: 11400000, guid: 2f25f16f620c07e4186e9839268c0fa1, type: 2}
  - m_RefCount: 1
    m_Data: {fileID: 11400000, guid: 140da5566fc07144c928f83b598c160b, type: 2}
  - m_RefCount: 1
    m_Data: {fileID: 11400000, guid: d5f5948c84140a947b82fb0ca1505cc3, type: 2}
  - m_RefCount: 1
    m_Data: {fileID: 11400000, guid: ee856581ddecf8c4ea25b0b915adf13b, type: 2}
  - m_RefCount: 1
    m_Data: {fileID: 11400000, guid: a1fd52c05595d4c4b9ddb31f2b59dbd5, type: 2}
  - m_RefCount: 1
    m_Data: {fileID: 11400000, guid: af0610c99c2b64d49aa89a8ca4f992ab, type: 2}
  - m_RefCount: 1
    m_Data: {fileID: 11400000, guid: b95bf19916407c0499f2f5ca074d90a1, type: 2}
  - m_RefCount: 1
    m_Data: {fileID: 11400000, guid: 7caf1a01dd28dad4bb5e85567f544d56, type: 2}
  - m_RefCount: 1
    m_Data: {fileID: 11400000, guid: c0afc193792ae204fb1fe8ae2659106c, type: 2}
  - m_RefCount: 1
    m_Data: {fileID: 11400000, guid: c2b115f540b29af41bc11838660b2dd0, type: 2}
  - m_RefCount: 1
    m_Data: {fileID: 11400000, guid: 4f65f50271079144abd1be4b848a97c2, type: 2}
  - m_RefCount: 1
    m_Data: {fileID: 11400000, guid: e407f3f9b544bd244a167f9374d08047, type: 2}
  - m_RefCount: 1
    m_Data: {fileID: 11400000, guid: 75a3068869dcdcf468378903425bc170, type: 2}
  - m_RefCount: 1
    m_Data: {fileID: 11400000, guid: 824782ce584d39045800e1909def83ef, type: 2}
  - m_RefCount: 1
    m_Data: {fileID: 11400000, guid: d48ab251123056244a18f3e92cb9b374, type: 2}
  - m_RefCount: 1
    m_Data: {fileID: 11400000, guid: 2ed12123c362e234ab789f9fe4b451d2, type: 2}
  - m_RefCount: 1
    m_Data: {fileID: 11400000, guid: 7f45470604c0236448600b8150e9635f, type: 2}
  - m_RefCount: 1
    m_Data: {fileID: 11400000, guid: 3d0d497fbefbe564c9d92bd1101192db, type: 2}
  - m_RefCount: 1
    m_Data: {fileID: 11400000, guid: e98e619deaf947f4ebf8a4ad404ab66e, type: 2}
  - m_RefCount: 1
    m_Data: {fileID: 11400000, guid: 918dd3fe2f6968b4ea15371b96db7116, type: 2}
  - m_RefCount: 1
    m_Data: {fileID: 11400000, guid: f57d82de27835b44d8b676cf117a39c5, type: 2}
  - m_RefCount: 1
    m_Data: {fileID: 11400000, guid: 05501ceabfc61e646837de2229b768e8, type: 2}
  - m_RefCount: 1
    m_Data: {fileID: 11400000, guid: ea007a4564b6fe94ea16cd405728631e, type: 2}
  - m_RefCount: 1
    m_Data: {fileID: 11400000, guid: 09ececd131228f941b5f90dc5fd2bbc6, type: 2}
  - m_RefCount: 1
    m_Data: {fileID: 11400000, guid: 9a7aeb7b1a74a18479d92d312b918755, type: 2}
  - m_RefCount: 1
    m_Data: {fileID: 11400000, guid: db6e13937d982fb43b038a02b6747598, type: 2}
  - m_RefCount: 1
    m_Data: {fileID: 11400000, guid: c3525b562c1df86428cdffb3d738e4d7, type: 2}
  - m_RefCount: 1
    m_Data: {fileID: 11400000, guid: 09cdfc18af972014eb1a98fccaa99a00, type: 2}
  - m_RefCount: 1
    m_Data: {fileID: 11400000, guid: 8e3432b352c155d428579772c49cdbab, type: 2}
  - m_RefCount: 1
    m_Data: {fileID: 11400000, guid: f94d500884a387d4d917dd897cf10b06, type: 2}
  - m_RefCount: 1
    m_Data: {fileID: 11400000, guid: b4e2fccc9fff75746a8e102e7ace7e77, type: 2}
  - m_RefCount: 1
    m_Data: {fileID: 11400000, guid: 3fbd6df6b6b5c6f47bf896ef523376ea, type: 2}
  - m_RefCount: 1
    m_Data: {fileID: 11400000, guid: 2f831d80b9b4a90479958d36cd317299, type: 2}
  - m_RefCount: 1
    m_Data: {fileID: 11400000, guid: 3429acfc901931c43ad9fa06440b64c7, type: 2}
  - m_RefCount: 1
    m_Data: {fileID: 11400000, guid: 3c93f32315271db40a962ce32be76f63, type: 2}
  - m_RefCount: 1
    m_Data: {fileID: 11400000, guid: 8845515ceffb58540be2be6739c8f26d, type: 2}
  - m_RefCount: 1
    m_Data: {fileID: 11400000, guid: d0deef68da623a94285dd6663e2964a3, type: 2}
  - m_RefCount: 1
    m_Data: {fileID: 11400000, guid: fb42527015bbae44f96e2f2385b44bfc, type: 2}
  - m_RefCount: 1
    m_Data: {fileID: 11400000, guid: 58fa9f30c76570043bf64841d29dff21, type: 2}
  - m_RefCount: 1
    m_Data: {fileID: 11400000, guid: 9fa082c262ddfea498d7bcee34612dc6, type: 2}
  - m_RefCount: 1
    m_Data: {fileID: 11400000, guid: c2f7ba63a9581aa4dab8b16e6dc7736a, type: 2}
  - m_RefCount: 1
    m_Data: {fileID: 11400000, guid: 1457870165f31754e94ecc5a7efab520, type: 2}
  - m_RefCount: 1
    m_Data: {fileID: 11400000, guid: 2b01fda57d2cae94fb39226b2332742a, type: 2}
  - m_RefCount: 1
    m_Data: {fileID: 11400000, guid: f944b451e1b8d9248b1ea308bca1261a, type: 2}
  - m_RefCount: 1
    m_Data: {fileID: 11400000, guid: c8d14ebafd67b1b43837567b5479102a, type: 2}
  - m_RefCount: 1
    m_Data: {fileID: 11400000, guid: 2656544b79693a640aac5fe572ca49d3, type: 2}
  - m_RefCount: 1
    m_Data: {fileID: 11400000, guid: b365a71d812c5c3428de09537396210d, type: 2}
  - m_RefCount: 1
    m_Data: {fileID: 11400000, guid: 48f6fc003912fc0489a428905c09da76, type: 2}
  - m_RefCount: 1
    m_Data: {fileID: 11400000, guid: 0d615809f3edb8243ba9c750137dea93, type: 2}
  - m_RefCount: 1
    m_Data: {fileID: 11400000, guid: 349ef151bddcbde40b3f693b3fd50270, type: 2}
  - m_RefCount: 1
    m_Data: {fileID: 11400000, guid: cb3abed2196517b4da3e506109be5ac0, type: 2}
  - m_RefCount: 1
    m_Data: {fileID: 11400000, guid: 96436fbc4ced2eb49bf0bb159f153d22, type: 2}
  - m_RefCount: 1
    m_Data: {fileID: 11400000, guid: 49f84525c3de9004d898c745e5ba22b3, type: 2}
  - m_RefCount: 1
    m_Data: {fileID: 11400000, guid: 75043cc5a5ef3024c9d668b8cb5cf8bb, type: 2}
  - m_RefCount: 1
    m_Data: {fileID: 11400000, guid: cc065d6fad2f17b4694e895225d361cf, type: 2}
  - m_RefCount: 1
    m_Data: {fileID: 11400000, guid: aa906ab7a3126fc40ba178b6ce014bd3, type: 2}
  - m_RefCount: 1
    m_Data: {fileID: 11400000, guid: 404f865cdda56af4ab4d61ead39a2c0b, type: 2}
  - m_RefCount: 1
    m_Data: {fileID: 11400000, guid: e01dcc1447d9ee141b9cc8e389328b14, type: 2}
  - m_RefCount: 1
    m_Data: {fileID: 11400000, guid: 796018e5dc7e37f41a877e2da246215a, type: 2}
  - m_RefCount: 1
    m_Data: {fileID: 11400000, guid: cf9a1f1510a2bcf429b2dd1fd8aa205e, type: 2}
  - m_RefCount: 1
    m_Data: {fileID: 11400000, guid: 1cacaba6f2e352a4ca8a8c05997dd63d, type: 2}
  - m_RefCount: 1
    m_Data: {fileID: 11400000, guid: 0693afaeb86ef57428571a71f95f7d12, type: 2}
  - m_RefCount: 1
    m_Data: {fileID: 11400000, guid: 8e4c955562fe25945a83377059f285cf, type: 2}
  - m_RefCount: 1
    m_Data: {fileID: 11400000, guid: b7123545d1b3ec146888a2fc60b06f23, type: 2}
  - m_RefCount: 1
    m_Data: {fileID: 11400000, guid: 72dcb177af3af52429ac8d9b0a7912f9, type: 2}
  - m_RefCount: 1
    m_Data: {fileID: 11400000, guid: ef8694c8c0db27d4c8ffcfcf2d53e059, type: 2}
  - m_RefCount: 1
    m_Data: {fileID: 11400000, guid: 84e5ebb85b1927e4cb84b370d348f990, type: 2}
  - m_RefCount: 1
    m_Data: {fileID: 11400000, guid: ff9a80bbdafccd746b250645a230c822, type: 2}
  - m_RefCount: 1
    m_Data: {fileID: 11400000, guid: 3d4c99ddd6e0b834ebc33ef4ec9c6d9c, type: 2}
  - m_RefCount: 1
    m_Data: {fileID: 11400000, guid: 57624ab3eacf0da40a8dfe87efda2aac, type: 2}
  - m_RefCount: 1
    m_Data: {fileID: 11400000, guid: 78216b4c11f594d4e8f18f11aa1fedb6, type: 2}
  - m_RefCount: 1
    m_Data: {fileID: 11400000, guid: 39639e27dddac4f4ebe7565d1364994a, type: 2}
  - m_RefCount: 1
    m_Data: {fileID: 11400000, guid: c578a18dcbd832544aed5822e8993700, type: 2}
  - m_RefCount: 1
    m_Data: {fileID: 11400000, guid: 6495057a10a741341a4b172b2058e14f, type: 2}
  - m_RefCount: 1
    m_Data: {fileID: 11400000, guid: ede7a91784a723746a20e8eb36d1a60f, type: 2}
  - m_RefCount: 1
    m_Data: {fileID: 11400000, guid: dae3f2f46e24fed4ebb1c592f02d1b8b, type: 2}
  - m_RefCount: 1
    m_Data: {fileID: 11400000, guid: d93c2d888151ddb498eb4d95199f8595, type: 2}
  - m_RefCount: 1
    m_Data: {fileID: 11400000, guid: 45e4d393e2afb0b439f863d10889ddca, type: 2}
  - m_RefCount: 1
    m_Data: {fileID: 11400000, guid: 53a955f4f3caac843919dee73a1370f0, type: 2}
  - m_RefCount: 1
    m_Data: {fileID: 11400000, guid: bf48dcf42e622794793d562ec980ee2b, type: 2}
  - m_RefCount: 1
    m_Data: {fileID: 11400000, guid: 79034fedc69bdb24c8cd6e1d12b53f5d, type: 2}
  - m_RefCount: 1
    m_Data: {fileID: 11400000, guid: 223c5e040e408464bbd9a045bf5fcc29, type: 2}
  - m_RefCount: 1
    m_Data: {fileID: 11400000, guid: 0de76c49ea9e76543aa4e2c1a523f678, type: 2}
  - m_RefCount: 1
    m_Data: {fileID: 11400000, guid: c61f43e0a97f2ba4eafa32089045dfb0, type: 2}
  - m_RefCount: 1
    m_Data: {fileID: 11400000, guid: 3d7f118388863234fb18fa65202715bc, type: 2}
  - m_RefCount: 1
    m_Data: {fileID: 11400000, guid: 282a813d02c625d41a59d552794f6700, type: 2}
  - m_RefCount: 1
    m_Data: {fileID: 11400000, guid: a2ad653b5be539a4880b2f63e5f1d193, type: 2}
  - m_RefCount: 1
    m_Data: {fileID: 11400000, guid: 59528cd654949364eb98a24a474fa1f5, type: 2}
  - m_RefCount: 1
    m_Data: {fileID: 11400000, guid: c33c5f079c905064882f68a1c6eb6a01, type: 2}
  - m_RefCount: 1
    m_Data: {fileID: 11400000, guid: c1eb819d836d37c43a21dfd6e4ef62ec, type: 2}
  - m_RefCount: 1
    m_Data: {fileID: 11400000, guid: df3bf21be9e9ee54897a9905d7f0865d, type: 2}
  - m_RefCount: 1
    m_Data: {fileID: 11400000, guid: 7fee2407e52f9884a979dda733e75e39, type: 2}
  - m_RefCount: 1
    m_Data: {fileID: 11400000, guid: 9dc611c8e21563744b974a030bf7f8ec, type: 2}
  - m_RefCount: 1
    m_Data: {fileID: 11400000, guid: a73e3e191ef051447923d0128c7ffc62, type: 2}
  - m_RefCount: 1
    m_Data: {fileID: 11400000, guid: 6ccd06d95aecff34b8478c6e806d5c57, type: 2}
  - m_RefCount: 1
    m_Data: {fileID: 11400000, guid: ac6460ea2c57758428cb7e52bb3eb2c2, type: 2}
  - m_RefCount: 1
    m_Data: {fileID: 11400000, guid: 5bc090f28809f8d4db27688f37eb46e4, type: 2}
  - m_RefCount: 1
    m_Data: {fileID: 11400000, guid: c57e637f583b3a449b1a4140648deddf, type: 2}
  - m_RefCount: 1
    m_Data: {fileID: 11400000, guid: 9a108d3807ca7824781a55a461e46e5d, type: 2}
  - m_RefCount: 1
    m_Data: {fileID: 11400000, guid: 733737ec31e43a2428a0a3bd2354b3c1, type: 2}
  - m_RefCount: 1
    m_Data: {fileID: 11400000, guid: 53ebf5d5b39495643ad4d3b4fab5825c, type: 2}
  - m_RefCount: 1
    m_Data: {fileID: 11400000, guid: f154b9ede96522c4ea7b17cd49fd39bc, type: 2}
  - m_RefCount: 1
    m_Data: {fileID: 11400000, guid: f24fe67403e3a3442aa360fbef6d2c01, type: 2}
  - m_RefCount: 1
    m_Data: {fileID: 11400000, guid: 3d4da35cdf252cb47b61c9a7784d22ab, type: 2}
  - m_RefCount: 1
    m_Data: {fileID: 11400000, guid: 8d768f68d5984a5429abd3ccc0a05caa, type: 2}
  - m_RefCount: 1
    m_Data: {fileID: 11400000, guid: f6c45983cfa75944b9afccfa70dcced7, type: 2}
  - m_RefCount: 1
    m_Data: {fileID: 11400000, guid: 2efd0ef586c50a64ba581213409a5df2, type: 2}
  - m_RefCount: 1
    m_Data: {fileID: 11400000, guid: 33544f94af6b1a247872b778e8c6dd25, type: 2}
  - m_RefCount: 1
    m_Data: {fileID: 11400000, guid: db5f89fc5c5c83541bcdb644783a4bfe, type: 2}
  - m_RefCount: 1
    m_Data: {fileID: 11400000, guid: ce0fb1c43ba70294da83b4d528931a5b, type: 2}
  - m_RefCount: 1
    m_Data: {fileID: 11400000, guid: 383738af97312aa4ab891bcf28af81ac, type: 2}
  - m_RefCount: 1
    m_Data: {fileID: 11400000, guid: 94154dbe9a28f0845b4f6e32fce7163c, type: 2}
  - m_RefCount: 0
    m_Data: {fileID: 0}
  - m_RefCount: 0
    m_Data: {fileID: 0}
  - m_RefCount: 0
    m_Data: {fileID: 0}
  - m_RefCount: 0
    m_Data: {fileID: 0}
  - m_RefCount: 0
    m_Data: {fileID: 0}
  - m_RefCount: 0
    m_Data: {fileID: 0}
  - m_RefCount: 0
    m_Data: {fileID: 0}
  - m_RefCount: 0
    m_Data: {fileID: 0}
  - m_RefCount: 0
    m_Data: {fileID: 0}
  - m_RefCount: 0
    m_Data: {fileID: 0}
  - m_RefCount: 0
    m_Data: {fileID: 0}
  - m_RefCount: 0
    m_Data: {fileID: 0}
  - m_RefCount: 0
    m_Data: {fileID: 0}
  - m_RefCount: 0
    m_Data: {fileID: 0}
  - m_RefCount: 0
    m_Data: {fileID: 0}
  - m_RefCount: 0
    m_Data: {fileID: 0}
  - m_RefCount: 0
    m_Data: {fileID: 0}
  - m_RefCount: 0
    m_Data: {fileID: 0}
  - m_RefCount: 0
    m_Data: {fileID: 0}
  - m_RefCount: 0
    m_Data: {fileID: 0}
  - m_RefCount: 0
    m_Data: {fileID: 0}
  - m_RefCount: 0
    m_Data: {fileID: 0}
  - m_RefCount: 0
    m_Data: {fileID: 0}
  m_TileSpriteArray:
  - m_RefCount: 1
    m_Data: {fileID: -265611305, guid: bfb7fac1c4d883e4c84a3c548112fed2, type: 3}
  - m_RefCount: 1
    m_Data: {fileID: 474280852, guid: bfb7fac1c4d883e4c84a3c548112fed2, type: 3}
  - m_RefCount: 1
    m_Data: {fileID: 1674127951, guid: bfb7fac1c4d883e4c84a3c548112fed2, type: 3}
  - m_RefCount: 1
    m_Data: {fileID: 1933960881, guid: bfb7fac1c4d883e4c84a3c548112fed2, type: 3}
  - m_RefCount: 1
    m_Data: {fileID: -1277228584, guid: bfb7fac1c4d883e4c84a3c548112fed2, type: 3}
  - m_RefCount: 1
    m_Data: {fileID: -290607197, guid: bfb7fac1c4d883e4c84a3c548112fed2, type: 3}
  - m_RefCount: 1
    m_Data: {fileID: 534199605, guid: bfb7fac1c4d883e4c84a3c548112fed2, type: 3}
  - m_RefCount: 1
    m_Data: {fileID: 467968503, guid: bfb7fac1c4d883e4c84a3c548112fed2, type: 3}
  - m_RefCount: 1
    m_Data: {fileID: -335894816, guid: bfb7fac1c4d883e4c84a3c548112fed2, type: 3}
  - m_RefCount: 1
    m_Data: {fileID: 514693015, guid: bfb7fac1c4d883e4c84a3c548112fed2, type: 3}
  - m_RefCount: 1
    m_Data: {fileID: 923337538, guid: bfb7fac1c4d883e4c84a3c548112fed2, type: 3}
  - m_RefCount: 1
    m_Data: {fileID: 1182092819, guid: bfb7fac1c4d883e4c84a3c548112fed2, type: 3}
  - m_RefCount: 1
    m_Data: {fileID: -1742531314, guid: bfb7fac1c4d883e4c84a3c548112fed2, type: 3}
  - m_RefCount: 1
    m_Data: {fileID: 843875632, guid: bfb7fac1c4d883e4c84a3c548112fed2, type: 3}
  - m_RefCount: 1
    m_Data: {fileID: -1571415310, guid: bfb7fac1c4d883e4c84a3c548112fed2, type: 3}
  - m_RefCount: 1
    m_Data: {fileID: -1627014228, guid: bfb7fac1c4d883e4c84a3c548112fed2, type: 3}
  - m_RefCount: 1
    m_Data: {fileID: 792253941, guid: bfb7fac1c4d883e4c84a3c548112fed2, type: 3}
  - m_RefCount: 1
    m_Data: {fileID: 1273375380, guid: bfb7fac1c4d883e4c84a3c548112fed2, type: 3}
  - m_RefCount: 1
    m_Data: {fileID: 182949301, guid: bfb7fac1c4d883e4c84a3c548112fed2, type: 3}
  - m_RefCount: 1
    m_Data: {fileID: -1496886470, guid: bfb7fac1c4d883e4c84a3c548112fed2, type: 3}
  - m_RefCount: 1
    m_Data: {fileID: -2094165077, guid: bfb7fac1c4d883e4c84a3c548112fed2, type: 3}
  - m_RefCount: 1
    m_Data: {fileID: 1465020446, guid: bfb7fac1c4d883e4c84a3c548112fed2, type: 3}
  - m_RefCount: 1
    m_Data: {fileID: -413522241, guid: bfb7fac1c4d883e4c84a3c548112fed2, type: 3}
  - m_RefCount: 1
    m_Data: {fileID: 609463424, guid: bfb7fac1c4d883e4c84a3c548112fed2, type: 3}
  - m_RefCount: 1
    m_Data: {fileID: -198366499, guid: bfb7fac1c4d883e4c84a3c548112fed2, type: 3}
  - m_RefCount: 1
    m_Data: {fileID: -1511725073, guid: bfb7fac1c4d883e4c84a3c548112fed2, type: 3}
  - m_RefCount: 1
    m_Data: {fileID: 1406300636, guid: bfb7fac1c4d883e4c84a3c548112fed2, type: 3}
  - m_RefCount: 1
    m_Data: {fileID: -1427730973, guid: bfb7fac1c4d883e4c84a3c548112fed2, type: 3}
  - m_RefCount: 1
    m_Data: {fileID: -1482149354, guid: bfb7fac1c4d883e4c84a3c548112fed2, type: 3}
  - m_RefCount: 1
    m_Data: {fileID: 2054491444, guid: bfb7fac1c4d883e4c84a3c548112fed2, type: 3}
  - m_RefCount: 1
    m_Data: {fileID: 862898628, guid: bfb7fac1c4d883e4c84a3c548112fed2, type: 3}
  - m_RefCount: 1
    m_Data: {fileID: 1813290494, guid: bfb7fac1c4d883e4c84a3c548112fed2, type: 3}
  - m_RefCount: 1
    m_Data: {fileID: -1355297873, guid: bfb7fac1c4d883e4c84a3c548112fed2, type: 3}
  - m_RefCount: 1
    m_Data: {fileID: 1205816080, guid: bfb7fac1c4d883e4c84a3c548112fed2, type: 3}
  - m_RefCount: 1
    m_Data: {fileID: 1252199900, guid: bfb7fac1c4d883e4c84a3c548112fed2, type: 3}
  - m_RefCount: 1
    m_Data: {fileID: 86739621, guid: bfb7fac1c4d883e4c84a3c548112fed2, type: 3}
  - m_RefCount: 1
    m_Data: {fileID: 1305822690, guid: bfb7fac1c4d883e4c84a3c548112fed2, type: 3}
  - m_RefCount: 1
    m_Data: {fileID: -372373213, guid: bfb7fac1c4d883e4c84a3c548112fed2, type: 3}
  - m_RefCount: 1
    m_Data: {fileID: 935124928, guid: bfb7fac1c4d883e4c84a3c548112fed2, type: 3}
  - m_RefCount: 1
    m_Data: {fileID: 822419735, guid: bfb7fac1c4d883e4c84a3c548112fed2, type: 3}
  - m_RefCount: 1
    m_Data: {fileID: 727992395, guid: bfb7fac1c4d883e4c84a3c548112fed2, type: 3}
  - m_RefCount: 1
    m_Data: {fileID: -1829611922, guid: bfb7fac1c4d883e4c84a3c548112fed2, type: 3}
  - m_RefCount: 1
    m_Data: {fileID: -1862631209, guid: bfb7fac1c4d883e4c84a3c548112fed2, type: 3}
  - m_RefCount: 1
    m_Data: {fileID: 2080996259, guid: bfb7fac1c4d883e4c84a3c548112fed2, type: 3}
  - m_RefCount: 1
    m_Data: {fileID: 832174698, guid: bfb7fac1c4d883e4c84a3c548112fed2, type: 3}
  - m_RefCount: 1
    m_Data: {fileID: -1577795459, guid: bfb7fac1c4d883e4c84a3c548112fed2, type: 3}
  - m_RefCount: 1
    m_Data: {fileID: -282026370, guid: bfb7fac1c4d883e4c84a3c548112fed2, type: 3}
  - m_RefCount: 1
    m_Data: {fileID: 1729224811, guid: bfb7fac1c4d883e4c84a3c548112fed2, type: 3}
  - m_RefCount: 1
    m_Data: {fileID: -560934100, guid: bfb7fac1c4d883e4c84a3c548112fed2, type: 3}
  - m_RefCount: 1
    m_Data: {fileID: 1679505447, guid: bfb7fac1c4d883e4c84a3c548112fed2, type: 3}
  - m_RefCount: 1
    m_Data: {fileID: -1684182653, guid: bfb7fac1c4d883e4c84a3c548112fed2, type: 3}
  - m_RefCount: 1
    m_Data: {fileID: -1285363180, guid: bfb7fac1c4d883e4c84a3c548112fed2, type: 3}
  - m_RefCount: 1
    m_Data: {fileID: 428571298, guid: bfb7fac1c4d883e4c84a3c548112fed2, type: 3}
  - m_RefCount: 1
    m_Data: {fileID: -929011315, guid: bfb7fac1c4d883e4c84a3c548112fed2, type: 3}
  - m_RefCount: 1
    m_Data: {fileID: 946457211, guid: bfb7fac1c4d883e4c84a3c548112fed2, type: 3}
  - m_RefCount: 1
    m_Data: {fileID: 815440326, guid: bfb7fac1c4d883e4c84a3c548112fed2, type: 3}
  - m_RefCount: 1
    m_Data: {fileID: -176552107, guid: bfb7fac1c4d883e4c84a3c548112fed2, type: 3}
  - m_RefCount: 1
    m_Data: {fileID: -138012845, guid: bfb7fac1c4d883e4c84a3c548112fed2, type: 3}
  - m_RefCount: 1
    m_Data: {fileID: 2090283351, guid: bfb7fac1c4d883e4c84a3c548112fed2, type: 3}
  - m_RefCount: 1
    m_Data: {fileID: -1271980081, guid: bfb7fac1c4d883e4c84a3c548112fed2, type: 3}
  - m_RefCount: 1
    m_Data: {fileID: -1977997884, guid: bfb7fac1c4d883e4c84a3c548112fed2, type: 3}
  - m_RefCount: 1
    m_Data: {fileID: 662632726, guid: bfb7fac1c4d883e4c84a3c548112fed2, type: 3}
  - m_RefCount: 1
    m_Data: {fileID: -1259418311, guid: bfb7fac1c4d883e4c84a3c548112fed2, type: 3}
  - m_RefCount: 1
    m_Data: {fileID: -433943661, guid: bfb7fac1c4d883e4c84a3c548112fed2, type: 3}
  - m_RefCount: 1
    m_Data: {fileID: 616720385, guid: bfb7fac1c4d883e4c84a3c548112fed2, type: 3}
  - m_RefCount: 1
    m_Data: {fileID: 935619603, guid: bfb7fac1c4d883e4c84a3c548112fed2, type: 3}
  - m_RefCount: 1
    m_Data: {fileID: -1998448248, guid: bfb7fac1c4d883e4c84a3c548112fed2, type: 3}
  - m_RefCount: 1
    m_Data: {fileID: 1090594888, guid: bfb7fac1c4d883e4c84a3c548112fed2, type: 3}
  - m_RefCount: 1
    m_Data: {fileID: 1150275452, guid: bfb7fac1c4d883e4c84a3c548112fed2, type: 3}
  - m_RefCount: 1
    m_Data: {fileID: 566025460, guid: bfb7fac1c4d883e4c84a3c548112fed2, type: 3}
  - m_RefCount: 1
    m_Data: {fileID: 2108386306, guid: bfb7fac1c4d883e4c84a3c548112fed2, type: 3}
  - m_RefCount: 1
    m_Data: {fileID: -170332326, guid: bfb7fac1c4d883e4c84a3c548112fed2, type: 3}
  - m_RefCount: 1
    m_Data: {fileID: 1066998738, guid: bfb7fac1c4d883e4c84a3c548112fed2, type: 3}
  - m_RefCount: 1
    m_Data: {fileID: 434897811, guid: bfb7fac1c4d883e4c84a3c548112fed2, type: 3}
  - m_RefCount: 1
    m_Data: {fileID: -1737638522, guid: bfb7fac1c4d883e4c84a3c548112fed2, type: 3}
  - m_RefCount: 1
    m_Data: {fileID: -875926706, guid: bfb7fac1c4d883e4c84a3c548112fed2, type: 3}
  - m_RefCount: 1
    m_Data: {fileID: -1191860812, guid: bfb7fac1c4d883e4c84a3c548112fed2, type: 3}
  - m_RefCount: 1
    m_Data: {fileID: -800501072, guid: bfb7fac1c4d883e4c84a3c548112fed2, type: 3}
  - m_RefCount: 1
    m_Data: {fileID: -865523486, guid: bfb7fac1c4d883e4c84a3c548112fed2, type: 3}
  - m_RefCount: 1
    m_Data: {fileID: -102726539, guid: bfb7fac1c4d883e4c84a3c548112fed2, type: 3}
  - m_RefCount: 1
    m_Data: {fileID: -106501055, guid: bfb7fac1c4d883e4c84a3c548112fed2, type: 3}
  - m_RefCount: 1
    m_Data: {fileID: 1461013236, guid: bfb7fac1c4d883e4c84a3c548112fed2, type: 3}
  - m_RefCount: 1
    m_Data: {fileID: -1328942187, guid: bfb7fac1c4d883e4c84a3c548112fed2, type: 3}
  - m_RefCount: 1
    m_Data: {fileID: -1245792962, guid: bfb7fac1c4d883e4c84a3c548112fed2, type: 3}
  - m_RefCount: 1
    m_Data: {fileID: 1275842846, guid: bfb7fac1c4d883e4c84a3c548112fed2, type: 3}
  - m_RefCount: 1
    m_Data: {fileID: 457574978, guid: bfb7fac1c4d883e4c84a3c548112fed2, type: 3}
  - m_RefCount: 1
    m_Data: {fileID: -1010432922, guid: bfb7fac1c4d883e4c84a3c548112fed2, type: 3}
  - m_RefCount: 1
    m_Data: {fileID: -1892693207, guid: bfb7fac1c4d883e4c84a3c548112fed2, type: 3}
  - m_RefCount: 1
    m_Data: {fileID: 280334872, guid: bfb7fac1c4d883e4c84a3c548112fed2, type: 3}
  - m_RefCount: 1
    m_Data: {fileID: -1173801911, guid: bfb7fac1c4d883e4c84a3c548112fed2, type: 3}
  - m_RefCount: 1
    m_Data: {fileID: -1036766148, guid: bfb7fac1c4d883e4c84a3c548112fed2, type: 3}
  - m_RefCount: 1
    m_Data: {fileID: -256863309, guid: bfb7fac1c4d883e4c84a3c548112fed2, type: 3}
  - m_RefCount: 1
    m_Data: {fileID: 1337181881, guid: bfb7fac1c4d883e4c84a3c548112fed2, type: 3}
  - m_RefCount: 1
    m_Data: {fileID: -563294680, guid: bfb7fac1c4d883e4c84a3c548112fed2, type: 3}
  - m_RefCount: 1
    m_Data: {fileID: 1317063211, guid: bfb7fac1c4d883e4c84a3c548112fed2, type: 3}
  - m_RefCount: 1
    m_Data: {fileID: 1653600857, guid: bfb7fac1c4d883e4c84a3c548112fed2, type: 3}
  - m_RefCount: 1
    m_Data: {fileID: 1934303277, guid: bfb7fac1c4d883e4c84a3c548112fed2, type: 3}
  - m_RefCount: 1
    m_Data: {fileID: -1267632220, guid: bfb7fac1c4d883e4c84a3c548112fed2, type: 3}
  - m_RefCount: 1
    m_Data: {fileID: -1356839053, guid: bfb7fac1c4d883e4c84a3c548112fed2, type: 3}
  - m_RefCount: 1
    m_Data: {fileID: -1893605356, guid: bfb7fac1c4d883e4c84a3c548112fed2, type: 3}
  - m_RefCount: 1
    m_Data: {fileID: -787042714, guid: bfb7fac1c4d883e4c84a3c548112fed2, type: 3}
  - m_RefCount: 1
    m_Data: {fileID: 1518817279, guid: bfb7fac1c4d883e4c84a3c548112fed2, type: 3}
  - m_RefCount: 1
    m_Data: {fileID: 457766750, guid: bfb7fac1c4d883e4c84a3c548112fed2, type: 3}
  - m_RefCount: 1
    m_Data: {fileID: -862291991, guid: bfb7fac1c4d883e4c84a3c548112fed2, type: 3}
  - m_RefCount: 1
    m_Data: {fileID: 1932260202, guid: bfb7fac1c4d883e4c84a3c548112fed2, type: 3}
  - m_RefCount: 1
    m_Data: {fileID: 18249322, guid: bfb7fac1c4d883e4c84a3c548112fed2, type: 3}
  - m_RefCount: 1
    m_Data: {fileID: -1151747303, guid: bfb7fac1c4d883e4c84a3c548112fed2, type: 3}
  - m_RefCount: 1
    m_Data: {fileID: 1579222226, guid: bfb7fac1c4d883e4c84a3c548112fed2, type: 3}
  - m_RefCount: 1
    m_Data: {fileID: -1629217263, guid: bfb7fac1c4d883e4c84a3c548112fed2, type: 3}
  - m_RefCount: 1
    m_Data: {fileID: -1285196558, guid: bfb7fac1c4d883e4c84a3c548112fed2, type: 3}
  - m_RefCount: 1
    m_Data: {fileID: -523810164, guid: bfb7fac1c4d883e4c84a3c548112fed2, type: 3}
  - m_RefCount: 1
    m_Data: {fileID: 202339798, guid: bfb7fac1c4d883e4c84a3c548112fed2, type: 3}
  - m_RefCount: 1
    m_Data: {fileID: 744477171, guid: bfb7fac1c4d883e4c84a3c548112fed2, type: 3}
  - m_RefCount: 1
    m_Data: {fileID: 812313792, guid: bfb7fac1c4d883e4c84a3c548112fed2, type: 3}
  - m_RefCount: 1
    m_Data: {fileID: 1103557929, guid: bfb7fac1c4d883e4c84a3c548112fed2, type: 3}
  - m_RefCount: 1
    m_Data: {fileID: 1752771800, guid: bfb7fac1c4d883e4c84a3c548112fed2, type: 3}
  - m_RefCount: 1
    m_Data: {fileID: -1726129701, guid: bfb7fac1c4d883e4c84a3c548112fed2, type: 3}
  - m_RefCount: 1
    m_Data: {fileID: -1495144419, guid: bfb7fac1c4d883e4c84a3c548112fed2, type: 3}
  - m_RefCount: 1
    m_Data: {fileID: -122834399, guid: bfb7fac1c4d883e4c84a3c548112fed2, type: 3}
  - m_RefCount: 1
    m_Data: {fileID: 2100201215, guid: bfb7fac1c4d883e4c84a3c548112fed2, type: 3}
  - m_RefCount: 1
    m_Data: {fileID: 112232761, guid: bfb7fac1c4d883e4c84a3c548112fed2, type: 3}
  - m_RefCount: 1
    m_Data: {fileID: -1523936089, guid: bfb7fac1c4d883e4c84a3c548112fed2, type: 3}
  - m_RefCount: 1
    m_Data: {fileID: -256879300, guid: bfb7fac1c4d883e4c84a3c548112fed2, type: 3}
  - m_RefCount: 1
    m_Data: {fileID: 639113142, guid: bfb7fac1c4d883e4c84a3c548112fed2, type: 3}
  - m_RefCount: 1
    m_Data: {fileID: 1013946633, guid: bfb7fac1c4d883e4c84a3c548112fed2, type: 3}
  - m_RefCount: 1
    m_Data: {fileID: -307568447, guid: bfb7fac1c4d883e4c84a3c548112fed2, type: 3}
  - m_RefCount: 1
    m_Data: {fileID: -955719957, guid: bfb7fac1c4d883e4c84a3c548112fed2, type: 3}
  - m_RefCount: 1
    m_Data: {fileID: -676110101, guid: bfb7fac1c4d883e4c84a3c548112fed2, type: 3}
  - m_RefCount: 1
    m_Data: {fileID: 1891443678, guid: bfb7fac1c4d883e4c84a3c548112fed2, type: 3}
  - m_RefCount: 1
    m_Data: {fileID: -92379903, guid: bfb7fac1c4d883e4c84a3c548112fed2, type: 3}
  - m_RefCount: 1
    m_Data: {fileID: -108671449, guid: bfb7fac1c4d883e4c84a3c548112fed2, type: 3}
  - m_RefCount: 1
    m_Data: {fileID: 1924759282, guid: bfb7fac1c4d883e4c84a3c548112fed2, type: 3}
  - m_RefCount: 1
    m_Data: {fileID: -129981238, guid: bfb7fac1c4d883e4c84a3c548112fed2, type: 3}
  - m_RefCount: 1
    m_Data: {fileID: -1164463305, guid: bfb7fac1c4d883e4c84a3c548112fed2, type: 3}
  - m_RefCount: 1
    m_Data: {fileID: 730414328, guid: bfb7fac1c4d883e4c84a3c548112fed2, type: 3}
  - m_RefCount: 1
    m_Data: {fileID: -1162200311, guid: bfb7fac1c4d883e4c84a3c548112fed2, type: 3}
  - m_RefCount: 1
    m_Data: {fileID: -1614569506, guid: bfb7fac1c4d883e4c84a3c548112fed2, type: 3}
  - m_RefCount: 1
    m_Data: {fileID: 1910982960, guid: bfb7fac1c4d883e4c84a3c548112fed2, type: 3}
  - m_RefCount: 1
    m_Data: {fileID: -1110526611, guid: bfb7fac1c4d883e4c84a3c548112fed2, type: 3}
  - m_RefCount: 1
    m_Data: {fileID: -465946145, guid: bfb7fac1c4d883e4c84a3c548112fed2, type: 3}
  - m_RefCount: 1
    m_Data: {fileID: -1826139920, guid: bfb7fac1c4d883e4c84a3c548112fed2, type: 3}
  - m_RefCount: 1
    m_Data: {fileID: 176567637, guid: bfb7fac1c4d883e4c84a3c548112fed2, type: 3}
  - m_RefCount: 1
    m_Data: {fileID: -427079362, guid: bfb7fac1c4d883e4c84a3c548112fed2, type: 3}
  - m_RefCount: 1
    m_Data: {fileID: -285946981, guid: bfb7fac1c4d883e4c84a3c548112fed2, type: 3}
  - m_RefCount: 1
    m_Data: {fileID: 1196161665, guid: bfb7fac1c4d883e4c84a3c548112fed2, type: 3}
  - m_RefCount: 1
    m_Data: {fileID: 2020589525, guid: bfb7fac1c4d883e4c84a3c548112fed2, type: 3}
  - m_RefCount: 0
    m_Data: {fileID: 0}
  - m_RefCount: 0
    m_Data: {fileID: 0}
  - m_RefCount: 0
    m_Data: {fileID: 0}
  - m_RefCount: 0
    m_Data: {fileID: 0}
  - m_RefCount: 0
    m_Data: {fileID: 0}
  - m_RefCount: 0
    m_Data: {fileID: 0}
  - m_RefCount: 0
    m_Data: {fileID: 0}
  - m_RefCount: 0
    m_Data: {fileID: 0}
  - m_RefCount: 0
    m_Data: {fileID: 0}
  - m_RefCount: 0
    m_Data: {fileID: 0}
  - m_RefCount: 0
    m_Data: {fileID: 0}
  - m_RefCount: 0
    m_Data: {fileID: 0}
  - m_RefCount: 0
    m_Data: {fileID: 0}
  - m_RefCount: 0
    m_Data: {fileID: 0}
  - m_RefCount: 0
    m_Data: {fileID: 0}
  - m_RefCount: 0
    m_Data: {fileID: 0}
  - m_RefCount: 0
    m_Data: {fileID: 0}
  - m_RefCount: 0
    m_Data: {fileID: 0}
  - m_RefCount: 0
    m_Data: {fileID: 0}
  - m_RefCount: 0
    m_Data: {fileID: 0}
  - m_RefCount: 0
    m_Data: {fileID: 0}
  - m_RefCount: 0
    m_Data: {fileID: 0}
  - m_RefCount: 0
    m_Data: {fileID: 0}
  m_TileMatrixArray:
  - m_RefCount: 146
    m_Data:
      e00: 1
      e01: 0
      e02: 0
      e03: 0
      e10: 0
      e11: 1
      e12: 0
      e13: 0
      e20: 0
      e21: 0
      e22: 1
      e23: 0
      e30: 0
      e31: 0
      e32: 0
      e33: 1
  m_TileColorArray:
  - m_RefCount: 146
    m_Data: {r: 1, g: 1, b: 1, a: 1}
  m_TileObjectToInstantiateArray: []
  m_AnimationFrameRate: 1
  m_Color: {r: 1, g: 1, b: 1, a: 1}
  m_Origin: {x: -2, y: -7, z: 0}
  m_Size: {x: 20, y: 17, z: 1}
  m_TileAnchor: {x: 0.5, y: 0.5, z: 0}
  m_TileOrientation: 0
  m_TileOrientationMatrix:
    e00: 1
    e01: 0
    e02: 0
    e03: 0
    e10: 0
    e11: 1
    e12: 0
    e13: 0
    e20: 0
    e21: 0
    e22: 1
    e23: 0
    e30: 0
    e31: 0
    e32: 0
    e33: 1
--- !u!483693784 &9047849023381048226
TilemapRenderer:
  m_ObjectHideFlags: 0
  m_CorrespondingSourceObject: {fileID: 0}
  m_PrefabInstance: {fileID: 0}
  m_PrefabAsset: {fileID: 0}
  m_GameObject: {fileID: 6008037928961672453}
  m_Enabled: 1
  m_CastShadows: 0
  m_ReceiveShadows: 0
  m_DynamicOccludee: 0
  m_StaticShadowCaster: 0
  m_MotionVectors: 1
  m_LightProbeUsage: 0
  m_ReflectionProbeUsage: 0
  m_RayTracingMode: 0
  m_RayTraceProcedural: 0
  m_RenderingLayerMask: 1
  m_RendererPriority: 0
  m_Materials:
  - {fileID: 2100000, guid: a97c105638bdf8b4a8650670310a4cd3, type: 2}
  m_StaticBatchInfo:
    firstSubMesh: 0
    subMeshCount: 0
  m_StaticBatchRoot: {fileID: 0}
  m_ProbeAnchor: {fileID: 0}
  m_LightProbeVolumeOverride: {fileID: 0}
  m_ScaleInLightmap: 1
  m_ReceiveGI: 1
  m_PreserveUVs: 0
  m_IgnoreNormalsForChartDetection: 0
  m_ImportantGI: 0
  m_StitchLightmapSeams: 1
  m_SelectedEditorRenderState: 0
  m_MinimumChartSize: 4
  m_AutoUVMaxDistance: 0.5
  m_AutoUVMaxAngle: 89
  m_LightmapParameters: {fileID: 0}
  m_SortingLayerID: 0
  m_SortingLayer: 0
  m_SortingOrder: 0
  m_ChunkSize: {x: 32, y: 32, z: 32}
  m_ChunkCullingBounds: {x: 0, y: 0, z: 0}
  m_MaxChunkCount: 16
  m_MaxFrameAge: 16
  m_SortOrder: 0
  m_Mode: 0
  m_DetectChunkCullingBounds: 0
  m_MaskInteraction: 0
--- !u!1 &7669934801808734280
GameObject:
  m_ObjectHideFlags: 0
  m_CorrespondingSourceObject: {fileID: 0}
  m_PrefabInstance: {fileID: 0}
  m_PrefabAsset: {fileID: 0}
  serializedVersion: 6
  m_Component:
  - component: {fileID: 1277263747324675940}
  - component: {fileID: 432001526811220630}
  m_Layer: 0
  m_Name: Snow
  m_TagString: Untagged
  m_Icon: {fileID: 0}
  m_NavMeshLayer: 0
  m_StaticEditorFlags: 0
  m_IsActive: 1
--- !u!4 &1277263747324675940
Transform:
  m_ObjectHideFlags: 0
  m_CorrespondingSourceObject: {fileID: 0}
  m_PrefabInstance: {fileID: 0}
  m_PrefabAsset: {fileID: 0}
  m_GameObject: {fileID: 7669934801808734280}
  m_LocalRotation: {x: 0, y: 0, z: 0, w: 1}
  m_LocalPosition: {x: 0, y: 0, z: 0}
  m_LocalScale: {x: 1, y: 1, z: 1}
  m_ConstrainProportionsScale: 0
  m_Children:
  - {fileID: 7737271064008883737}
  m_Father: {fileID: 0}
  m_RootOrder: 0
  m_LocalEulerAnglesHint: {x: 0, y: 0, z: 0}
--- !u!156049354 &432001526811220630
Grid:
  m_ObjectHideFlags: 0
  m_CorrespondingSourceObject: {fileID: 0}
  m_PrefabInstance: {fileID: 0}
  m_PrefabAsset: {fileID: 0}
  m_GameObject: {fileID: 7669934801808734280}
  m_Enabled: 1
  m_CellSize: {x: 1, y: 1, z: 0}
  m_CellGap: {x: 0, y: 0, z: 0}
  m_CellLayout: 0
  m_CellSwizzle: 0
--- !u!114 &5249167793769180156
MonoBehaviour:
  m_ObjectHideFlags: 0
  m_CorrespondingSourceObject: {fileID: 0}
  m_PrefabInstance: {fileID: 0}
  m_PrefabAsset: {fileID: 0}
  m_GameObject: {fileID: 0}
  m_Enabled: 1
  m_EditorHideFlags: 0
  m_Script: {fileID: 12395, guid: 0000000000000000e000000000000000, type: 0}
  m_Name: Palette Settings
  m_EditorClassIdentifier: 
  cellSizing: 0
  m_TransparencySortMode: 0
  m_TransparencySortAxis: {x: 0, y: 0, z: 1}
