%YAML 1.1
%TAG !u! tag:unity3d.com,2011:
--- !u!114 &11400000
MonoBehaviour:
  m_ObjectHideFlags: 0
  m_CorrespondingSourceObject: {fileID: 0}
  m_PrefabInstance: {fileID: 0}
  m_PrefabAsset: {fileID: 0}
  m_GameObject: {fileID: 0}
  m_Enabled: 1
  m_EditorHideFlags: 0
  m_Script: {fileID: 11500000, guid: c673275587fe1ce478afdf180f4f9b84, type: 3}
  m_Name: "4T\xFAnica negra"
  m_EditorClassIdentifier: 
  sprite: {fileID: 21300000, guid: 2405525511b14c64b95844b51ba53334, type: 3}
  name: "T\xFAnica negra"
  value: 30
  hp: 8
  mp: 8
  armor: 8
  mr: 8
  dodge: 6
  estilo: 3
  parte: 1
