%YAML 1.1
%TAG !u! tag:unity3d.com,2011:
--- !u!114 &11400000
MonoBehaviour:
  m_ObjectHideFlags: 0
  m_CorrespondingSourceObject: {fileID: 0}
  m_PrefabInstance: {fileID: 0}
  m_PrefabAsset: {fileID: 0}
  m_GameObject: {fileID: 0}
  m_Enabled: 1
  m_EditorHideFlags: 0
  m_Script: {fileID: 11500000, guid: c673275587fe1ce478afdf180f4f9b84, type: 3}
  m_Name: 4Hueso de platino
  m_EditorClassIdentifier: 
  sprite: {fileID: 21300000, guid: e7c17bc1477f48443975276b135b27e8, type: 3}
  name: Hueso de platino
  value: 60
  hp: 20
  mp: 5
  armor: 20
  mr: 20
  dodge: 7
  estilo: 0
  parte: 3
