%YAML 1.1
%TAG !u! tag:unity3d.com,2011:
--- !u!1001 &6482915453846002170
PrefabInstance:
  m_ObjectHideFlags: 0
  serializedVersion: 2
  m_Modification:
    m_TransformParent: {fileID: 0}
    m_Modifications:
    - target: {fileID: 1273878621588632176, guid: 4da6fb3cdf0d3514e944a2cd4a30d5f8, type: 3}
      propertyPath: m_SpriteTilingProperty.oldSize.y
      value: 1.91
      objectReference: {fileID: 0}
    - target: {fileID: 1273878621588632177, guid: 4da6fb3cdf0d3514e944a2cd4a30d5f8, type: 3}
      propertyPath: m_SpriteTilingProperty.oldSize.y
      value: 1.91
      objectReference: {fileID: 0}
    - target: {fileID: 1273878621588632186, guid: 4da6fb3cdf0d3514e944a2cd4a30d5f8, type: 3}
      propertyPath: m_Name
      value: Pinguino
      objectReference: {fileID: 0}
    - target: {fileID: 1273878621588632190, guid: 4da6fb3cdf0d3514e944a2cd4a30d5f8, type: 3}
      propertyPath: m_RootOrder
      value: 0
      objectReference: {fileID: 0}
    - target: {fileID: 1273878621588632190, guid: 4da6fb3cdf0d3514e944a2cd4a30d5f8, type: 3}
      propertyPath: m_LocalPosition.x
      value: 1.8116815
      objectReference: {fileID: 0}
    - target: {fileID: 1273878621588632190, guid: 4da6fb3cdf0d3514e944a2cd4a30d5f8, type: 3}
      propertyPath: m_LocalPosition.y
      value: -5.86036
      objectReference: {fileID: 0}
    - target: {fileID: 1273878621588632190, guid: 4da6fb3cdf0d3514e944a2cd4a30d5f8, type: 3}
      propertyPath: m_LocalPosition.z
      value: 0
      objectReference: {fileID: 0}
    - target: {fileID: 1273878621588632190, guid: 4da6fb3cdf0d3514e944a2cd4a30d5f8, type: 3}
      propertyPath: m_LocalRotation.w
      value: 1
      objectReference: {fileID: 0}
    - target: {fileID: 1273878621588632190, guid: 4da6fb3cdf0d3514e944a2cd4a30d5f8, type: 3}
      propertyPath: m_LocalRotation.x
      value: 0
      objectReference: {fileID: 0}
    - target: {fileID: 1273878621588632190, guid: 4da6fb3cdf0d3514e944a2cd4a30d5f8, type: 3}
      propertyPath: m_LocalRotation.y
      value: 0
      objectReference: {fileID: 0}
    - target: {fileID: 1273878621588632190, guid: 4da6fb3cdf0d3514e944a2cd4a30d5f8, type: 3}
      propertyPath: m_LocalRotation.z
      value: 0
      objectReference: {fileID: 0}
    - target: {fileID: 1273878621588632190, guid: 4da6fb3cdf0d3514e944a2cd4a30d5f8, type: 3}
      propertyPath: m_LocalEulerAnglesHint.x
      value: 0
      objectReference: {fileID: 0}
    - target: {fileID: 1273878621588632190, guid: 4da6fb3cdf0d3514e944a2cd4a30d5f8, type: 3}
      propertyPath: m_LocalEulerAnglesHint.y
      value: 0
      objectReference: {fileID: 0}
    - target: {fileID: 1273878621588632190, guid: 4da6fb3cdf0d3514e944a2cd4a30d5f8, type: 3}
      propertyPath: m_LocalEulerAnglesHint.z
      value: 0
      objectReference: {fileID: 0}
    - target: {fileID: 1273878621588632191, guid: 4da6fb3cdf0d3514e944a2cd4a30d5f8, type: 3}
      propertyPath: m_Sprite
      value: 
      objectReference: {fileID: 21300000, guid: e58b61f048a42d14f9ca23b1dcf01898, type: 3}
    m_RemovedComponents:
    - {fileID: 1273878621588632189, guid: 4da6fb3cdf0d3514e944a2cd4a30d5f8, type: 3}
    - {fileID: 1273878621588632188, guid: 4da6fb3cdf0d3514e944a2cd4a30d5f8, type: 3}
    - {fileID: 984111167002711002, guid: 4da6fb3cdf0d3514e944a2cd4a30d5f8, type: 3}
  m_SourcePrefab: {fileID: 100100000, guid: 4da6fb3cdf0d3514e944a2cd4a30d5f8, type: 3}
--- !u!1 &5213559348011248512 stripped
GameObject:
  m_CorrespondingSourceObject: {fileID: 1273878621588632186, guid: 4da6fb3cdf0d3514e944a2cd4a30d5f8, type: 3}
  m_PrefabInstance: {fileID: 6482915453846002170}
  m_PrefabAsset: {fileID: 0}
--- !u!114 &3511317280858532967
MonoBehaviour:
  m_ObjectHideFlags: 0
  m_CorrespondingSourceObject: {fileID: 0}
  m_PrefabInstance: {fileID: 0}
  m_PrefabAsset: {fileID: 0}
  m_GameObject: {fileID: 5213559348011248512}
  m_Enabled: 1
  m_EditorHideFlags: 0
  m_Script: {fileID: 11500000, guid: 4a9e263c649bfaa40a23a35e90675fc7, type: 3}
  m_Name: 
  m_EditorClassIdentifier: 
  nutria: {fileID: 11400000, guid: ab2c792654d574f4ca6a02aae1b4761d, type: 2}
  textToDisplay: 
  "tama\xF1oTxt": 17
  progresivo: 0
  velocidadTxt: 0.04
  cartelOpen: 0
