%YAML 1.1
%TAG !u! tag:unity3d.com,2011:
--- !u!114 &11400000
MonoBehaviour:
  m_ObjectHideFlags: 0
  m_CorrespondingSourceObject: {fileID: 0}
  m_PrefabInstance: {fileID: 0}
  m_PrefabAsset: {fileID: 0}
  m_GameObject: {fileID: 0}
  m_Enabled: 1
  m_EditorHideFlags: 0
  m_Script: {fileID: 11500000, guid: b4905987fb963bc4d879dab7972d760e, type: 3}
  m_Name: Congelar
  m_EditorClassIdentifier: 
  name: Congelar
  afecction: 1
  costMana: 5
  damage: 10
  Elemento: 2
  probability: 40
  type: 0
  objective: 1
  target: 1
  addAtk: 0
  addAp: 0
  addArmor: 0
  addMr: 0
  addSpd: 0
  addDodge: 0
