%YAML 1.1
%TAG !u! tag:unity3d.com,2011:
--- !u!114 &11400000
MonoBehaviour:
  m_ObjectHideFlags: 0
  m_CorrespondingSourceObject: {fileID: 0}
  m_PrefabInstance: {fileID: 0}
  m_PrefabAsset: {fileID: 0}
  m_GameObject: {fileID: 0}
  m_Enabled: 1
  m_EditorHideFlags: 0
  m_Script: {fileID: 11500000, guid: c673275587fe1ce478afdf180f4f9b84, type: 3}
  m_Name: 1Pantalones rotos
  m_EditorClassIdentifier: 
  sprite: {fileID: 21300000, guid: 69013786ccbd48741bacaf37bb163e92, type: 3}
  name: Pantalones rotos
  value: 1
  hp: 2
  mp: 0
  armor: 2
  mr: 1
  dodge: 0
  estilo: 2
  parte: 2
