%YAML 1.1
%TAG !u! tag:unity3d.com,2011:
--- !u!114 &11400000
MonoBehaviour:
  m_ObjectHideFlags: 0
  m_CorrespondingSourceObject: {fileID: 0}
  m_PrefabInstance: {fileID: 0}
  m_PrefabAsset: {fileID: 0}
  m_GameObject: {fileID: 0}
  m_Enabled: 1
  m_EditorHideFlags: 0
  m_Script: {fileID: 11500000, guid: be2223b736428b74cb9c077bf8a64a66, type: 3}
  m_Name: Speedy
  m_EditorClassIdentifier: 
  sprite: {fileID: 21300000, guid: 23fbbb68067a68f488ec194d56191122, type: 2}
  MaxHP: 30
  HP: 30
  Ap: 8
  Atk: 10
  Magic_armor: 10
  Phisyc_armor: 8
  Velociy: 10
  Dodge: 10
  exp: 8
  loot: []
  tcarga: 0
  attacks:
  - {fileID: 11400000, guid: 0101c1e7a9630a74f8e58efb89a6c45f, type: 2}
  - {fileID: 11400000, guid: 63e83e8f80ef9c542b398b03dccb844b, type: 2}
  - {fileID: 11400000, guid: eb5286fd03bc4cd43bc919985ae02535, type: 2}
  - {fileID: 11400000, guid: 37515798730b0c94da5db750ee852f37, type: 2}
