%YAML 1.1
%TAG !u! tag:unity3d.com,2011:
--- !u!114 &11400000
MonoBehaviour:
  m_ObjectHideFlags: 0
  m_CorrespondingSourceObject: {fileID: 0}
  m_PrefabInstance: {fileID: 0}
  m_PrefabAsset: {fileID: 0}
  m_GameObject: {fileID: 0}
  m_Enabled: 1
  m_EditorHideFlags: 0
  m_Script: {fileID: 11500000, guid: c673275587fe1ce478afdf180f4f9b84, type: 3}
  m_Name: 2Casco de acero
  m_EditorClassIdentifier: 
  sprite: {fileID: 21300000, guid: 89feb105c97df4b4db9e76113cb1f779, type: 3}
  name: Casco de acero
  value: 5
  hp: 3
  mp: 0
  armor: 3
  mr: 1
  dodge: 0
  estilo: 0
  parte: 0
