%YAML 1.1
%TAG !u! tag:unity3d.com,2011:
--- !u!114 &11400000
MonoBehaviour:
  m_ObjectHideFlags: 0
  m_CorrespondingSourceObject: {fileID: 0}
  m_PrefabInstance: {fileID: 0}
  m_PrefabAsset: {fileID: 0}
  m_GameObject: {fileID: 0}
  m_Enabled: 1
  m_EditorHideFlags: 0
  m_Script: {fileID: 11500000, guid: c673275587fe1ce478afdf180f4f9b84, type: 3}
  m_Name: "2T\xFAnica de cuero"
  m_EditorClassIdentifier: 
  sprite: {fileID: 21300000, guid: 2405525511b14c64b95844b51ba53334, type: 3}
  name: "T\xFAnica de cuero"
  value: 5
  hp: 5
  mp: 0
  armor: 5
  mr: 3
  dodge: 0
  estilo: 2
  parte: 1
