%YAML 1.1
%TAG !u! tag:unity3d.com,2011:
--- !u!114 &11400000
MonoBehaviour:
  m_ObjectHideFlags: 0
  m_CorrespondingSourceObject: {fileID: 0}
  m_PrefabInstance: {fileID: 0}
  m_PrefabAsset: {fileID: 0}
  m_GameObject: {fileID: 0}
  m_Enabled: 1
  m_EditorHideFlags: 0
  m_Script: {fileID: 11500000, guid: f8ce994ab52b6b841b1e3dd5c85f10d5, type: 3}
  m_Name: Michi
  m_EditorClassIdentifier: 
  sprite: {fileID: -1118899519, guid: 1d3f9e4e738c5d84dadf70528fd1f35e, type: 3}
  BaseHP: 30
  MaxHP: 30
  HP: 30
  BaseMP: 20
  MaxMP: 20
  MP: 20
  BaseAtk: 20
  Atk: 20
  BaseAP: 5
  Ap: 5
  BaseArmor: 5
  Armor: 5
  BaseMagicResistance: 5
  MagicResistance: 5
  Spd: 20
  BaseDodge: 20
  Dodge: 20
  dead: 0
  Type: 2
  gameObject: {fileID: 4415775032206808391, guid: 195039a1f93c82b4d8d769ea2d6da569, type: 3}
  Equipment:
  - {fileID: 11400000, guid: e6d1a08762f0e2b4095265a37bb63e39, type: 2}
  - {fileID: 11400000, guid: d7dc042a6e4c6cc43a9b0b749fe8b66f, type: 2}
  - {fileID: 11400000, guid: 234f18b0ced14ca4fa7a1528465d98bd, type: 2}
  - {fileID: 11400000, guid: 8f1023e217a66944fbdf1e6751218237, type: 2}
  - {fileID: 11400000, guid: 5947b51baf3c11243bee31143018c66d, type: 2}
  attacks:
  - {fileID: 11400000, guid: 0101c1e7a9630a74f8e58efb89a6c45f, type: 2}
  - {fileID: 11400000, guid: 63e83e8f80ef9c542b398b03dccb844b, type: 2}
  - {fileID: 11400000, guid: eb5286fd03bc4cd43bc919985ae02535, type: 2}
  - {fileID: 11400000, guid: 37515798730b0c94da5db750ee852f37, type: 2}
  level: 1
  exp: 0
  limitExp: 100
