%YAML 1.1
%TAG !u! tag:unity3d.com,2011:
--- !u!114 &11400000
MonoBehaviour:
  m_ObjectHideFlags: 0
  m_CorrespondingSourceObject: {fileID: 0}
  m_PrefabInstance: {fileID: 0}
  m_PrefabAsset: {fileID: 0}
  m_GameObject: {fileID: 0}
  m_Enabled: 1
  m_EditorHideFlags: 0
  m_Script: {fileID: 11500000, guid: f8ce994ab52b6b841b1e3dd5c85f10d5, type: 3}
  m_Name: Nutria
  m_EditorClassIdentifier: 
  sprite: {fileID: 21300000, guid: d237fb3938d06984db91f319c81bae45, type: 3}
  BaseHP: 25
  MaxHP: 25
  HP: 25
  BaseMP: 10
  MaxMP: 10
  MP: 10
  BaseAtk: 25
  Atk: 25
  BaseAP: 5
  Ap: 5
  BaseArmor: 5
  Armor: 5
  BaseMagicResistance: 5
  MagicResistance: 5
  Spd: 10
  BaseDodge: 30
  Dodge: 30
  dead: 0
  Type: 3
  gameObject: {fileID: 0}
  Equipment:
  - {fileID: 11400000, guid: fa3815d8c895d39469a0f600ab9a5cf9, type: 2}
  - {fileID: 11400000, guid: 2bd14d0b524135548810cc4442174176, type: 2}
  - {fileID: 11400000, guid: 70da66b79351375478f195199a4b42f3, type: 2}
  - {fileID: 11400000, guid: 4bb8b7e6ed8ffd04a8546165e2eb991e, type: 2}
  - {fileID: 11400000, guid: d49d20782bd33ea46a6a22c657b38411, type: 2}
  attacks:
  - {fileID: 11400000, guid: 428e5104e5c665e4a953d12ded62de87, type: 2}
  - {fileID: 11400000, guid: 0cfb25f86f18b654690c5f7674d8d07a, type: 2}
  - {fileID: 11400000, guid: a2cca3a275ba1bf4a9e7c74fd6fe9376, type: 2}
  - {fileID: 11400000, guid: 6cce212d3fc54ad48abaa11ca932a5fe, type: 2}
  level: 1
  exp: 8
  limitExp: 100
