%YAML 1.1
%TAG !u! tag:unity3d.com,2011:
--- !u!114 &11400000
MonoBehaviour:
  m_ObjectHideFlags: 0
  m_CorrespondingSourceObject: {fileID: 0}
  m_PrefabInstance: {fileID: 0}
  m_PrefabAsset: {fileID: 0}
  m_GameObject: {fileID: 0}
  m_Enabled: 1
  m_EditorHideFlags: 0
  m_Script: {fileID: 11500000, guid: f8ce994ab52b6b841b1e3dd5c85f10d5, type: 3}
  m_Name: Perro
  m_EditorClassIdentifier: 
  sprite: {fileID: 21300000, guid: 510c0e9e4bac86e46b68d936c8eb374e, type: 3}
  BaseHP: 50
  MaxHP: 50
  HP: 50
  BaseMP: 10
  MaxMP: 10
  MP: 10
  BaseAtk: 30
  Atk: 30
  BaseAP: 1
  Ap: 1
  BaseArmor: 15
  Armor: 15
  BaseMagicResistance: 10
  MagicResistance: 10
  Spd: 1
  BaseDodge: 1
  Dodge: 1
  dead: 0
  Type: 0
  gameObject: {fileID: 0}
  Equipment:
  - {fileID: 11400000, guid: 0c36f27f5f40a0d46b4da82b5901f03a, type: 2}
  - {fileID: 11400000, guid: 6686e5cb2420b024a9ecd83b5ac3b273, type: 2}
  - {fileID: 11400000, guid: 0bba67db6f5e33949846810f86d591ea, type: 2}
  - {fileID: 11400000, guid: 7b6132f824940fa46bf58f471d1d1b41, type: 2}
  - {fileID: 11400000, guid: e835abf9cda0d964283a977f94349757, type: 2}
  attacks:
  - {fileID: 11400000, guid: e0288d706eb698c4badf5fd93b40ba96, type: 2}
  - {fileID: 11400000, guid: f025e59cd4806254cba13573cf5bc70e, type: 2}
  - {fileID: 11400000, guid: 091494791c5e5504a844f7966ca466a9, type: 2}
  - {fileID: 11400000, guid: 59c4267b186d897469b63a6bc1dfab1a, type: 2}
  level: 1
  exp: 0
  limitExp: 100
