%YAML 1.1
%TAG !u! tag:unity3d.com,2011:
--- !u!114 &11400000
MonoBehaviour:
  m_ObjectHideFlags: 0
  m_CorrespondingSourceObject: {fileID: 0}
  m_PrefabInstance: {fileID: 0}
  m_PrefabAsset: {fileID: 0}
  m_GameObject: {fileID: 0}
  m_Enabled: 1
  m_EditorHideFlags: 0
  m_Script: {fileID: 11500000, guid: c673275587fe1ce478afdf180f4f9b84, type: 3}
  m_Name: 2Mallas de acero
  m_EditorClassIdentifier: 
  sprite: {fileID: 21300000, guid: 69013786ccbd48741bacaf37bb163e92, type: 3}
  name: Mallas de acero
  value: 5
  hp: 3
  mp: 0
  armor: 4
  mr: 2
  dodge: 0
  estilo: 0
  parte: 2
