%YAML 1.1
%TAG !u! tag:unity3d.com,2011:
--- !u!114 &11400000
MonoBehaviour:
  m_ObjectHideFlags: 0
  m_CorrespondingSourceObject: {fileID: 0}
  m_PrefabInstance: {fileID: 0}
  m_PrefabAsset: {fileID: 0}
  m_GameObject: {fileID: 0}
  m_Enabled: 1
  m_EditorHideFlags: 0
  m_Script: {fileID: 11500000, guid: a95edb8724a8ade4b8688426f19b73d7, type: 3}
  m_Name: Arco bueno
  m_EditorClassIdentifier: 
  sprite: {fileID: 21300000, guid: db7c079e69f101245bdfb8f9973a06a8, type: 3}
  name: Arco bueno
  value: 15
  atk: 10
  ap: 0
  elem: 0
  tipo: 3
