%YAML 1.1
%TAG !u! tag:unity3d.com,2011:
--- !u!114 &11400000
MonoBehaviour:
  m_ObjectHideFlags: 0
  m_CorrespondingSourceObject: {fileID: 0}
  m_PrefabInstance: {fileID: 0}
  m_PrefabAsset: {fileID: 0}
  m_GameObject: {fileID: 0}
  m_Enabled: 1
  m_EditorHideFlags: 0
  m_Script: {fileID: 11500000, guid: fd2153fb2f1bc5247bb9dc12484d89d5, type: 3}
  m_Name: ActiveParty
  m_EditorClassIdentifier: 
  Michi: {fileID: 11400000, guid: dd1a3e974cef6e94d9eabc42c0af4a9f, type: 2}
  Perro: {fileID: 11400000, guid: d7c626019165680499308d1698a922c5, type: 2}
  Nutria: {fileID: 0}
  Pinguino: {fileID: 0}
