%YAML 1.1
%TAG !u! tag:unity3d.com,2011:
--- !u!114 &11400000
MonoBehaviour:
  m_ObjectHideFlags: 0
  m_CorrespondingSourceObject: {fileID: 0}
  m_PrefabInstance: {fileID: 0}
  m_PrefabAsset: {fileID: 0}
  m_GameObject: {fileID: 0}
  m_Enabled: 1
  m_EditorHideFlags: 0
  m_Script: {fileID: 11500000, guid: 2559ea0422cd46146999abb121942b7d, type: 3}
  m_Name: Save
  m_EditorClassIdentifier: 
  story: {fileID: 11400000, guid: 8ee93e0c0d6899c4ea51bc7dd54a9dc5, type: 2}
  party: {fileID: 11400000, guid: dfa2e0dccb236b745bbe3180a097042b, type: 2}
  position: {fileID: 11400000, guid: e41f6234a8d72974ba20be74ec376bc3, type: 2}
  inventory: {fileID: 11400000, guid: 14606f0c80057144fa589b61964f3869, type: 2}
